%!PS-Adobe-2.0 EPSF-2.0
%%BoundingBox:  0 0 567 378
%%Title: ./booklet/USER@HISTOGRAMS/Acoplan.eps: Acoplanarity
%%Creator: ROOT Version 3.10/00
%%CreationDate: Fri Apr 23 15:49:37 2004
%%EndComments
%%BeginProlog
80 dict begin
/s {stroke} def /l {lineto} def /m {moveto} def /t {translate} def
/sw {stringwidth} def /r {rotate} def /rl {roll}  def /R {repeat} def
/d {rlineto} def /rm {rmoveto} def /gr {grestore} def /f {eofill} def
/c {setrgbcolor} def /lw {setlinewidth} def /sd {setdash} def
/cl {closepath} def /sf {scalefont setfont} def /black {0 setgray} def
/box {m dup 0 exch d exch 0 d 0 exch neg d cl} def
/NC{systemdict begin initclip end}def/C{NC box clip newpath}def
/bl {box s} def /bf {box f} def /Y { 0 exch d} def /X { 0 d} def 
/mp {newpath /y exch def /x exch def} def
/side {[w .77 mul w .23 mul] .385 w mul sd w 0 l currentpoint t -144 r} def
/mr {mp x y w2 0 360 arc} def /m24 {mr s} def /m20 {mr f} def
/mb {mp x y w2 add m w2 neg 0 d 0 w neg d w 0 d 0 w d cl} def
/mt {mp x y w2 add m w2 neg w neg d w 0 d cl} def
/m21 {mb f} def /m25 {mb s} def /m22 {mt f} def /m26{mt s} def
/m23 {mp x y w2 sub m w2 w d w neg 0 d cl f} def
/m27 {mp x y w2 add m w3 neg w2 neg d w3 w2 neg d w3 w2 d cl s} def
/m28 {mp x w2 sub y w2 sub w3 add m w3 0 d  0 w3 neg d w3 0 d 0 w3 d w3 0 d  0 w3 d w3 neg 0 d 0 w3 d w3 neg 0 d
 0 w3 neg d w3 neg 0 d cl s } def
/m29 {mp gsave x w2 sub y w2 add w3 sub m currentpoint t
 4 {side} repeat cl fill gr} def
/m30 {mp gsave x w2 sub y w2 add w3 sub m currentpoint t
 4 {side} repeat cl s gr} def
/m31 {mp x y w2 sub m 0 w d x w2 sub y m w 0 d x w2 sub y w2 add m w w neg d x w2 sub y w2
 sub m w w d s} def
/m2 {mp x y w2 sub m 0 w d x w2 sub y m w 0 d s} def
/m5 {mp x w2 sub y w2 sub m w w d x w2 sub y w2 add m w w neg d s} def
/reencdict 24 dict def /ReEncode {reencdict begin /nco&na exch def
/nfnam exch def /basefontname exch def /basefontdict basefontname findfont def
/newfont basefontdict maxlength dict def basefontdict {exch dup /FID ne
{dup /Encoding eq {exch dup length array copy newfont 3 1 roll put} {exch 
newfont 3 1 roll put} ifelse} {pop pop} ifelse } forall newfont
/FontName nfnam put nco&na aload pop nco&na length 2 idiv {newfont
/Encoding get 3 1 roll put} repeat nfnam newfont definefont pop end } def
/accvec [ 176 /agrave 181 /Agrave 190 /acircumflex 192 /Acircumflex
201 /adieresis 204 /Adieresis 209 /ccedilla 210 /Ccedilla 211 /eacute
212 /Eacute 213 /egrave 214 /Egrave 215 /ecircumflex 216 /Ecircumflex
217 /edieresis 218 /Edieresis 219 /icircumflex 220 /Icircumflex
221 /idieresis 222 /Idieresis 223 /ntilde 224 /Ntilde 226 /ocircumflex
228 /Ocircumflex 229 /odieresis 230 /Odieresis 231 /ucircumflex 236 /Ucircumflex
237 /udieresis 238 /Udieresis 239 /aring 242 /Aring 243 /ydieresis
244 /Ydieresis 246 /aacute 247 /Aacute 252 /ugrave 253 /Ugrave] def
/Times-Roman /Times-Roman accvec ReEncode
/Times-Italic /Times-Italic accvec ReEncode
/Times-Bold /Times-Bold accvec ReEncode
/Times-BoldItalic /Times-BoldItalic accvec ReEncode
/Helvetica /Helvetica accvec ReEncode
/Helvetica-Oblique /Helvetica-Oblique accvec ReEncode
/Helvetica-Bold /Helvetica-Bold accvec ReEncode
/Helvetica-BoldOblique /Helvetica-BoldOblique  accvec ReEncode
/Courier /Courier accvec ReEncode
/Courier-Oblique /Courier-Oblique accvec ReEncode
/Courier-Bold /Courier-Bold accvec ReEncode
/Courier-BoldOblique /Courier-BoldOblique accvec ReEncode
/oshow {gsave [] 0 sd true charpath stroke gr} def
/stwn { /fs exch def /fn exch def /text exch def fn findfont fs sf
 text sw pop xs add /xs exch def} def
/stwb { /fs exch def /fn exch def /nbas exch def /textf exch deftextf length /tlen exch def nbas tlen gt {/nbas tlendef} iffn findfont fs sf textf dup length nbas sub nbas getinterval sw
pop neg xs add /xs exch def} def
/accspe [ 65 /plusminus  66 /bar  67 /existential  68 /universal 
69 /exclam  70 /numbersign 71 /greater  72 /question  73 /integral 
74 /colon  75 /semicolon  76 /less  77 /bracketleft  78 /bracketright
79 /greaterequal 80 /braceleft 81 /braceright 82 /radical
83 /spade 84 /heart 85 /diamond 86 /club 87 /lessequal
88 /multiply 89 /percent 90 /infinity 48 /circlemultiply 49 /circleplus
50 /emptyset  51 /lozenge 52 /bullet 53 /arrowright 54 /arrowup
55 /arrowleft 56 /arrowdown 57 /arrowboth 48 /degree 44 /comma 43 /plus 45 /angle 42 /angleleft 47 /divide 61 /notequal 40 /equivalence 41 /second 97 /approxequal 98 /congruent 99 /perpendicular 100 /partialdiff 101 /florin 102 /intersection
 103 /union 104 /propersuperset 105 /reflexsuperset 106 /notsubset 107 /propersubset 108 /reflexsubset 109 /element 110 /notelement 111 /gradient 112 /logicaland 113 /logicalor 114 /arrowdblboth 115 /arrowdblleft 116 /arrowdblup 117 /arrowdblright
 118 /arrowdbldown 119 /ampersand 120 /omega1 121 /similar 122 /aleph ] def
/Symbol /Special accspe ReEncode
%%EndProlog
%%BeginSetup
newpath  gsave  .25 .25 scale 
%%EndSetup
 gsave  0 0 t black [] 0 sd 3 lw 0.999 0.999 0.999 c 2268 1512 0 0 bf 1 1 1 c 0 0 m 2 2 d 1508 Y 2264 X 2 2 d -2268 X -1512 Y f 0.999 0.999 0.999 c 0 0 m 2 2 d 2264 X 1508 Y 2 2 d -1512 Y -2268 X f black 0.999 0.999 0.999 c 1814 1210 227 151 bf 1 1 1
 c 227 151 m 1 1 d 1208 Y 1812 X 1 1 d -1814 X -1210 Y f 0.999 0.999 0.999 c 227 151 m 1 1 d 1812 X 1208 Y 1 1 d -1210 Y -1814 X f black 1814 1210 227 151 bl 1 1 1 c black 229 1210 m 58 X 93 Y 61 X -78 Y 60 X 51 Y 61 X -26 Y 60 X -7 Y 61 X 8 Y 60 X
 13 Y 121 X -9 Y 60 X -61 Y 61 X -4 Y 60 X 42 Y 61 X -48 Y 60 X -40 Y 61 X 86 Y 60 X -63 Y 61 X -9 Y 60 X 8 Y 61 X 13 Y 60 X -57 Y 61 X 74 Y 60 X -37 Y 61 X -43 Y 60 X 42 Y 61 X 26 Y 60 X -9 Y 61 X -21 Y 60 X 32 Y 60 X -50 Y 59 X s 227 151 m 1814 X s
 282 187 m -36 Y s 337 169 m -18 Y s 392 169 m -18 Y s 447 169 m -18 Y s 502 169 m -18 Y s 557 187 m -36 Y s 612 169 m -18 Y s 667 169 m -18 Y s 722 169 m -18 Y s 777 169 m -18 Y s 831 187 m -36 Y s 886 169 m -18 Y s 941 169 m -18 Y s 996 169 m -18 Y
 s 1051 169 m -18 Y s 1106 187 m -36 Y s 1161 169 m -18 Y s 1216 169 m -18 Y s 1271 169 m -18 Y s 1326 169 m -18 Y s 1381 187 m -36 Y s 1436 169 m -18 Y s 1491 169 m -18 Y s 1546 169 m -18 Y s 1601 169 m -18 Y s 1656 187 m -36 Y s 1711 169 m -18 Y s
 1766 169 m -18 Y s 1821 169 m -18 Y s 1876 169 m -18 Y s 1931 187 m -36 Y s 282 187 m -36 Y s 1931 187 m -36 Y s 1986 169 m -18 Y s
 gsave  265 98
 t 0 r 0 0 m /Helvetica-Bold findfont 56.6929 sf 0 0 m (0) show  gr 
 gsave  514 98
 t 0 r 0 0 m /Helvetica-Bold findfont 56.6929 sf 0 0 m (0.5) show  gr 
 gsave  820 98
 t 0 r 0 0 m /Helvetica-Bold findfont 56.6929 sf 0 0 m (1) show  gr 
 gsave  1062 98
 t 0 r 0 0 m /Helvetica-Bold findfont 56.6929 sf 0 0 m (1.5) show  gr 
 gsave  1364 98
 t 0 r 0 0 m /Helvetica-Bold findfont 56.6929 sf 0 0 m (2) show  gr 
 gsave  1614 98
 t 0 r 0 0 m /Helvetica-Bold findfont 56.6929 sf 0 0 m (2.5) show  gr 
 gsave  1912 98
 t 0 r 0 0 m /Helvetica-Bold findfont 56.6929 sf 0 0 m (3) show  gr  227 151 m 1210 Y s 281 151 m -54 X s 254 204 m -27 X s 254 256 m -27 X s 254 309 m -27 X s 281 361 m -54 X s 254 414 m -27 X s 254 466 m -27 X s 254 519 m -27 X s 281 571 m -54 X s
 254 624 m -27 X s 254 677 m -27 X s 254 729 m -27 X s 281 782 m -54 X s 254 834 m -27 X s 254 887 m -27 X s 254 939 m -27 X s 281 992 m -54 X s 254 1044 m -27 X s 254 1097 m -27 X s 254 1149 m -27 X s 281 1202 m -54 X s 281 1202 m -54 X s 254 1254 m
 -27 X s 254 1307 m -27 X s 254 1359 m -27 X s
 gsave  185 136
 t 0 r 0 0 m /Helvetica-Bold findfont 56.6929 sf 0 0 m (0) show  gr 
 gsave  136 348
 t 0 r 0 0 m /Helvetica-Bold findfont 56.6929 sf 0 0 m (0.2) show  gr 
 gsave  136 559
 t 0 r 0 0 m /Helvetica-Bold findfont 56.6929 sf 0 0 m (0.4) show  gr 
 gsave  136 767
 t 0 r 0 0 m /Helvetica-Bold findfont 56.6929 sf 0 0 m (0.6) show  gr 
 gsave  136 979
 t 0 r 0 0 m /Helvetica-Bold findfont 56.6929 sf 0 0 m (0.8) show  gr 
 gsave  193 1187
 t 0 r 0 0 m /Helvetica-Bold findfont 56.6929 sf 0 0 m (1) show  gr  0.95 0.95 0.95 c 480 75 23 1429 bf black 34 1429 m -8 Y 476 X 72 Y -7 X -64 Y f 23 1429 m 75 Y 480 X -75 Y -480 X cl s 1 1 1 c black
 gsave  76 1444
 t 0 r 0 0 m /Helvetica-Bold findfont 60.4724 sf 0 0 m (Acoplanarity) show  gr  1 0 0 c 1 1 1 c black 1 0 0 c 229 248 m 58 X 950 Y 61 X -37 Y 60 X 37 Y 61 X -36 Y 60 X -11 Y 61 X -22 Y 60 X 19 Y 61 X -16 Y 60 X -27 Y 60 X -26 Y 61 X -12 Y 60 X -13 Y
 61 X -3 Y 60 X -17 Y 61 X -6 Y 60 X -29 Y 61 X -14 Y 60 X -12 Y 61 X 33 Y 60 X -50 Y 61 X 34 Y 60 X -31 Y 61 X -30 Y 60 X 31 Y 61 X -6 Y 60 X 2 Y 61 X -15 Y 60 X 17 Y 60 X -436 Y 59 X s 0 1 0 c 1 1 1 c black 0 1 0 c 229 200 m 58 X 437 Y 61 X 17 Y 60
 X -5 Y 61 X -6 Y 60 X -2 Y 61 X -15 Y 60 X 4 Y 61 X -7 Y 60 X -10 Y 60 X 14 Y 61 X -5 Y 60 X -24 Y 61 X 19 Y 60 X 9 Y 61 X -40 Y 60 X 11 Y 61 X -3 Y 60 X -10 Y 61 X 12 Y 60 X -2 Y 61 X -14 Y 121 X 2 Y 60 X -1 Y 61 X -14 Y 60 X 4 Y 61 X 1 Y 60 X -4 Y
 60 X -216 Y 59 X s 1 0 0 c 2041 151 m 1152 Y s 1989 151 m 52 X s 2015 185 m 26 X s 2015 219 m 26 X s 2015 252 m 26 X s 2015 286 m 26 X s 1989 320 m 52 X s 2015 354 m 26 X s 2015 387 m 26 X s 2015 421 m 26 X s 2015 455 m 26 X s 1989 489 m 52 X s 2015
 523 m 26 X s 2015 556 m 26 X s 2015 590 m 26 X s 2015 624 m 26 X s 1989 658 m 52 X s 2015 691 m 26 X s 2015 725 m 26 X s 2015 759 m 26 X s 2015 793 m 26 X s 1989 826 m 52 X s 2015 860 m 26 X s 2015 894 m 26 X s 2015 928 m 26 X s 2015 961 m 26 X s
 1989 995 m 52 X s 2015 1029 m 26 X s 2015 1063 m 26 X s 2015 1096 m 26 X s 2015 1130 m 26 X s 1989 1164 m 52 X s 1989 1164 m 52 X s 2015 1198 m 26 X s 2015 1231 m 26 X s 2015 1265 m 26 X s 2015 1299 m 26 X s black
 gsave  2052 136
 t 0 r 0 0 m /Helvetica-Bold findfont 56.6929 sf 0 0 m (0) show  gr 
 gsave  2052 306
 t 0 r 0 0 m /Helvetica-Bold findfont 56.6929 sf 0 0 m (500) show  gr 
 gsave  2052 476
 t 0 r 0 0 m /Helvetica-Bold findfont 56.6929 sf 0 0 m (1000) show  gr 
 gsave  2052 643
 t 0 r 0 0 m /Helvetica-Bold findfont 56.6929 sf 0 0 m (1500) show  gr 
 gsave  2052 813
 t 0 r 0 0 m /Helvetica-Bold findfont 56.6929 sf 0 0 m (2000) show  gr 
 gsave  2052 983
 t 0 r 0 0 m /Helvetica-Bold findfont 56.6929 sf 0 0 m (2500) show  gr 
 gsave  2052 1149
 t 0 r 0 0 m /Helvetica-Bold findfont 56.6929 sf 0 0 m (3000) show  gr  1 1 0 c 476 167 1565 1330 bf 1 1 0.2 c 1565 1330 m 2 2 d 163 Y 472 X 2 2 d -476 X -167 Y f 0.7 0.7 0 c 1565 1330 m 2 2 d 472 X 163 Y 2 2 d -167 Y -476 X f black
 gsave  1633 1432
 t 0 r 0 0 m /Times-Bold findfont 60.4724 sf 0 0 m (SDP) show  gr 
 gsave  1610 1342
 t 0 r 0 0 m /Helvetica-Bold findfont 86.9291 sf 0 0 m (      0) show  gr  0.95 0.95 0.95 c 480 75 23 1429 bf black 34 1429 m -8 Y 476 X 72 Y -7 X -64 Y f 23 1429 m 75 Y 480 X -75 Y -480 X cl s 1 1 1 c black
 gsave  76 1444
 t 0 r 0 0 m /Helvetica-Bold findfont 60.4724 sf 0 0 m (Acoplanarity) show  gr 
 gr  gr 
showpage
end
%%EOF
