%!PS-Adobe-2.0
%%Title: /home/piters/work/MC/PHOTOS-MCTESTER/PHOTOS-ORDERING/winhac-1.13-export/demo-W-PHOTOS-ORDERING/Qdiff_harder.ps: ww
%%Creator: ROOT Version 3.10/00
%%CreationDate: Thu Oct  7 10:35:47 2004
%%EndComments
%%BeginProlog
/s {stroke} def /l {lineto} def /m {moveto} def /t {translate} def
/sw {stringwidth} def /r {rotate} def /rl {roll}  def /R {repeat} def
/d {rlineto} def /rm {rmoveto} def /gr {grestore} def /f {eofill} def
/c {setrgbcolor} def /lw {setlinewidth} def /sd {setdash} def
/cl {closepath} def /sf {scalefont setfont} def /black {0 setgray} def
/box {m dup 0 exch d exch 0 d 0 exch neg d cl} def
/NC{systemdict begin initclip end}def/C{NC box clip newpath}def
/bl {box s} def /bf {box f} def /Y { 0 exch d} def /X { 0 d} def 
/mp {newpath /y exch def /x exch def} def
/side {[w .77 mul w .23 mul] .385 w mul sd w 0 l currentpoint t -144 r} def
/mr {mp x y w2 0 360 arc} def /m24 {mr s} def /m20 {mr f} def
/mb {mp x y w2 add m w2 neg 0 d 0 w neg d w 0 d 0 w d cl} def
/mt {mp x y w2 add m w2 neg w neg d w 0 d cl} def
/m21 {mb f} def /m25 {mb s} def /m22 {mt f} def /m26{mt s} def
/m23 {mp x y w2 sub m w2 w d w neg 0 d cl f} def
/m27 {mp x y w2 add m w3 neg w2 neg d w3 w2 neg d w3 w2 d cl s} def
/m28 {mp x w2 sub y w2 sub w3 add m w3 0 d  0 w3 neg d w3 0 d 0 w3 d w3 0 d  0 w3 d w3 neg 0 d 0 w3 d w3 neg 0 d
 0 w3 neg d w3 neg 0 d cl s } def
/m29 {mp gsave x w2 sub y w2 add w3 sub m currentpoint t
 4 {side} repeat cl fill gr} def
/m30 {mp gsave x w2 sub y w2 add w3 sub m currentpoint t
 4 {side} repeat cl s gr} def
/m31 {mp x y w2 sub m 0 w d x w2 sub y m w 0 d x w2 sub y w2 add m w w neg d x w2 sub y w2
 sub m w w d s} def
/m2 {mp x y w2 sub m 0 w d x w2 sub y m w 0 d s} def
/m5 {mp x w2 sub y w2 sub m w w d x w2 sub y w2 add m w w neg d s} def
/reencdict 24 dict def /ReEncode {reencdict begin /nco&na exch def
/nfnam exch def /basefontname exch def /basefontdict basefontname findfont def
/newfont basefontdict maxlength dict def basefontdict {exch dup /FID ne
{dup /Encoding eq {exch dup length array copy newfont 3 1 roll put} {exch 
newfont 3 1 roll put} ifelse} {pop pop} ifelse } forall newfont
/FontName nfnam put nco&na aload pop nco&na length 2 idiv {newfont
/Encoding get 3 1 roll put} repeat nfnam newfont definefont pop end } def
/accvec [ 176 /agrave 181 /Agrave 190 /acircumflex 192 /Acircumflex
201 /adieresis 204 /Adieresis 209 /ccedilla 210 /Ccedilla 211 /eacute
212 /Eacute 213 /egrave 214 /Egrave 215 /ecircumflex 216 /Ecircumflex
217 /edieresis 218 /Edieresis 219 /icircumflex 220 /Icircumflex
221 /idieresis 222 /Idieresis 223 /ntilde 224 /Ntilde 226 /ocircumflex
228 /Ocircumflex 229 /odieresis 230 /Odieresis 231 /ucircumflex 236 /Ucircumflex
237 /udieresis 238 /Udieresis 239 /aring 242 /Aring 243 /ydieresis
244 /Ydieresis 246 /aacute 247 /Aacute 252 /ugrave 253 /Ugrave] def
/Times-Roman /Times-Roman accvec ReEncode
/Times-Italic /Times-Italic accvec ReEncode
/Times-Bold /Times-Bold accvec ReEncode
/Times-BoldItalic /Times-BoldItalic accvec ReEncode
/Helvetica /Helvetica accvec ReEncode
/Helvetica-Oblique /Helvetica-Oblique accvec ReEncode
/Helvetica-Bold /Helvetica-Bold accvec ReEncode
/Helvetica-BoldOblique /Helvetica-BoldOblique  accvec ReEncode
/Courier /Courier accvec ReEncode
/Courier-Oblique /Courier-Oblique accvec ReEncode
/Courier-Bold /Courier-Bold accvec ReEncode
/Courier-BoldOblique /Courier-BoldOblique accvec ReEncode
/oshow {gsave [] 0 sd true charpath stroke gr} def
/stwn { /fs exch def /fn exch def /text exch def fn findfont fs sf
 text sw pop xs add /xs exch def} def
/stwb { /fs exch def /fn exch def /nbas exch def /textf exch deftextf length /tlen exch def nbas tlen gt {/nbas tlendef} iffn findfont fs sf textf dup length nbas sub nbas getinterval sw
pop neg xs add /xs exch def} def
/accspe [ 65 /plusminus  66 /bar  67 /existential  68 /universal 
69 /exclam  70 /numbersign 71 /greater  72 /question  73 /integral 
74 /colon  75 /semicolon  76 /less  77 /bracketleft  78 /bracketright
79 /greaterequal 80 /braceleft 81 /braceright 82 /radical
83 /spade 84 /heart 85 /diamond 86 /club 87 /lessequal
88 /multiply 89 /percent 90 /infinity 48 /circlemultiply 49 /circleplus
50 /emptyset  51 /lozenge 52 /bullet 53 /arrowright 54 /arrowup
55 /arrowleft 56 /arrowdown 57 /arrowboth 48 /degree 44 /comma 43 /plus 45 /angle 42 /angleleft 47 /divide 61 /notequal 40 /equivalence 41 /second 97 /approxequal 98 /congruent 99 /perpendicular 100 /partialdiff 101 /florin 102 /intersection
 103 /union 104 /propersuperset 105 /reflexsuperset 106 /notsubset 107 /propersubset 108 /reflexsubset 109 /element 110 /notelement 111 /gradient 112 /logicaland 113 /logicalor 114 /arrowdblboth 115 /arrowdblleft 116 /arrowdblup 117 /arrowdblright
 118 /arrowdbldown 119 /ampersand 120 /omega1 121 /similar 122 /aleph ] def
/Symbol /Special accspe ReEncode
/Zone {/iy exch def /ix exch def  ix 1 sub  3144 mul  1 iy sub  2224
 mul t} def
%%EndProlog
%%BeginSetup
newpath  gsave  90 r 0 -594 t  28 20 t .25 .25 scale  gsave 
%%EndSetup
%%Page: number 1
 gsave  gsave 
 1 1 Zone
 gsave  0 0 t black [] 0 sd 3 lw 0.95 0.95 0.95 c 2905 2268 0 0 bf 1 1 1 c 0 0 m 2 2 d 2264 Y 2901 X 2 2 d -2905 X -2268 Y f 0.665 0.665 0.665 c 0 0 m 2 2 d 2901 X 2264 Y 2 2 d -2268 Y -2905 X f black 0.95 0.95 0.95 c 1395 1088 29 1157 bf 1 1 1 c 29
 1157 m 2 2 d 1084 Y 1391 X 2 2 d -1395 X -1088 Y f 0.665 0.665 0.665 c 29 1157 m 2 2 d 1391 X 1084 Y 2 2 d -1088 Y -1395 X f black 0.95 0.95 0.95 c 1115 871 169 1265 bf 1 1 1 c 169 1265 m 1 1 d 869 Y 1113 X 1 1 d -1115 X -871 Y f 0.665 0.665 0.665 c
 169 1265 m 1 1 d 1113 X 869 Y 1 1 d -871 Y -1115 X f black 1115 871 169 1265 bl 0.95 0.95 0.95 c 1115 871 169 1265 bf 1 1 1 c 169 1265 m 1 1 d 869 Y 1113 X 1 1 d -1115 X -871 Y f 0.665 0.665 0.665 c 169 1265 m 1 1 d 1113 X 869 Y 1 1 d -871 Y -1115 X
 f black 1115 871 169 1265 bl 1 1 1 c 0.8 0.8 0.8 c 9 7 1191 1440 bf 10 8 884 1461 bf 9 8 717 1490 bf 9 7 1145 1512 bf 10 7 763 1541 bf 10 7 912 1541 bf 9 7 875 1599 bf 9 7 689 1628 bf 9 8 652 1635 bf 10 7 1042 1650 bf 9 7 1080 1665 bf 9 7 782 1672
 bf 9 7 838 1679 bf 10 8 819 1686 bf 9 8 1080 1686 bf 9 7 1024 1701 bf 9 7 578 1708 bf 9 7 847 1708 bf 9 7 996 1708 bf 9 8 578 1715 bf 9 8 866 1715 bf 9 7 615 1723 bf 9 7 689 1723 bf 10 7 726 1723 bf 10 7 856 1723 bf 9 7 1117 1723 bf 9 7 680 1730 bf
 9 7 1089 1730 bf 10 7 661 1737 bf 9 7 671 1737 bf 9 7 866 1737 bf 9 8 531 1744 bf 10 8 661 1744 bf 9 8 838 1744 bf 10 8 856 1744 bf 9 8 1052 1744 bf 9 8 1098 1744 bf 10 8 1107 1744 bf 9 7 438 1752 bf 9 7 531 1752 bf 9 7 643 1752 bf 9 7 875 1752 bf 9
 7 1080 1752 bf 9 7 1145 1752 bf 10 7 410 1759 bf 10 7 475 1759 bf 9 7 531 1759 bf 9 7 559 1759 bf 10 7 661 1759 bf 9 7 671 1759 bf 9 7 680 1759 bf 9 7 708 1759 bf 9 7 717 1759 bf 9 7 587 1766 bf 10 7 698 1766 bf 10 7 763 1766 bf 9 7 773 1766 bf 9 7
 875 1766 bf 9 7 903 1766 bf 9 7 931 1766 bf 9 7 1015 1766 bf 10 7 1107 1766 bf 9 8 336 1773 bf 9 8 420 1773 bf 9 8 457 1773 bf 9 8 485 1773 bf 9 8 522 1773 bf 9 8 578 1773 bf 9 8 587 1773 bf 9 8 745 1773 bf 9 8 801 1773 bf 9 8 838 1773 bf 10 8 884
 1773 bf 9 8 903 1773 bf 10 8 949 1773 bf 10 8 1135 1773 bf 9 8 1219 1773 bf 10 7 633 1781 bf 9 7 671 1781 bf 10 7 726 1781 bf 9 7 801 1781 bf 10 7 819 1781 bf 10 7 856 1781 bf 9 7 894 1781 bf 9 7 968 1781 bf 9 7 1145 1781 bf 9 7 429 1788 bf 9 7 438
 1788 bf 10 7 475 1788 bf 10 7 512 1788 bf 9 7 522 1788 bf 10 7 568 1788 bf 9 7 578 1788 bf 9 7 587 1788 bf 9 7 652 1788 bf 10 7 763 1788 bf 9 7 875 1788 bf 10 7 977 1788 bf 10 7 1042 1788 bf 10 7 1135 1788 bf 9 7 1238 1788 bf 9 7 373 1795 bf 9 7 420
 1795 bf 10 7 447 1795 bf 10 7 568 1795 bf 9 7 578 1795 bf 9 7 652 1795 bf 9 7 689 1795 bf 9 7 717 1795 bf 10 7 726 1795 bf 9 7 782 1795 bf 10 7 791 1795 bf 10 7 819 1795 bf 9 7 838 1795 bf 9 7 847 1795 bf 10 7 856 1795 bf 10 7 912 1795 bf 10 7 1005
 1795 bf 9 7 1080 1795 bf 9 7 1219 1795 bf 10 8 382 1802 bf 10 8 475 1802 bf 9 8 503 1802 bf 9 8 531 1802 bf 9 8 550 1802 bf 9 8 559 1802 bf 10 8 568 1802 bf 10 8 605 1802 bf 9 8 624 1802 bf 9 8 652 1802 bf 9 8 708 1802 bf 9 8 717 1802 bf 9 8 745
 1802 bf 9 8 801 1802 bf 10 8 884 1802 bf 9 8 903 1802 bf 9 8 1015 1802 bf 10 8 1070 1802 bf 9 7 401 1810 bf 9 7 438 1810 bf 10 7 447 1810 bf 9 7 466 1810 bf 9 7 485 1810 bf 9 7 522 1810 bf 10 7 540 1810 bf 9 7 559 1810 bf 9 7 624 1810 bf 9 7 643
 1810 bf 9 7 680 1810 bf 9 7 708 1810 bf 9 7 745 1810 bf 9 7 782 1810 bf 10 7 791 1810 bf 9 7 829 1810 bf 9 7 838 1810 bf 10 7 884 1810 bf 10 7 949 1810 bf 9 7 959 1810 bf 9 7 968 1810 bf 10 7 977 1810 bf 9 7 996 1810 bf 9 7 1024 1810 bf 9 7 1033
 1810 bf 9 7 1126 1810 bf 9 7 1238 1810 bf 9 7 1247 1810 bf 9 7 271 1817 bf 9 7 308 1817 bf 9 7 364 1817 bf 10 7 410 1817 bf 9 7 429 1817 bf 9 7 438 1817 bf 10 7 447 1817 bf 10 7 475 1817 bf 9 7 531 1817 bf 10 7 540 1817 bf 9 7 578 1817 bf 9 7 596
 1817 bf 9 7 615 1817 bf 9 7 736 1817 bf 9 7 754 1817 bf 9 7 773 1817 bf 9 7 782 1817 bf 9 7 810 1817 bf 9 7 847 1817 bf 9 7 875 1817 bf 10 7 884 1817 bf 9 7 894 1817 bf 9 7 903 1817 bf 10 7 912 1817 bf 9 7 922 1817 bf 9 7 931 1817 bf 10 7 949 1817
 bf 9 7 1015 1817 bf 9 7 1033 1817 bf 9 7 1052 1817 bf 10 7 1070 1817 bf 9 7 1080 1817 bf 9 7 1126 1817 bf 9 7 1247 1817 bf 9 7 280 1824 bf 10 7 317 1824 bf 9 7 345 1824 bf 9 7 364 1824 bf 9 7 373 1824 bf 9 7 401 1824 bf 9 7 420 1824 bf 9 7 438 1824
 bf 0.6 0.6 0.6 c 10 7 447 1824 bf 0.8 0.8 0.8 c 10 7 475 1824 bf 9 7 531 1824 bf 9 7 550 1824 bf 9 7 559 1824 bf 10 7 568 1824 bf 9 7 596 1824 bf 9 7 615 1824 bf 10 7 633 1824 bf 9 7 671 1824 bf 9 7 708 1824 bf 9 7 717 1824 bf 10 7 726 1824 bf 10 7
 763 1824 bf 9 7 773 1824 bf 10 7 791 1824 bf 9 7 810 1824 bf 10 7 819 1824 bf 9 7 838 1824 bf 9 7 847 1824 bf 10 7 856 1824 bf 10 7 884 1824 bf 9 7 894 1824 bf 9 7 903 1824 bf 9 7 922 1824 bf 10 7 949 1824 bf 9 7 959 1824 bf 10 7 977 1824 bf 9 7
 1015 1824 bf 9 7 1080 1824 bf 9 7 1089 1824 bf 9 7 1154 1824 bf 9 7 1210 1824 bf 9 8 308 1831 bf 9 8 327 1831 bf 10 8 354 1831 bf 9 8 364 1831 bf 10 8 382 1831 bf 9 8 392 1831 bf 9 8 401 1831 bf 10 8 410 1831 bf 9 8 457 1831 bf 0.6 0.6 0.6 c 9 8 466
 1831 bf 0.8 0.8 0.8 c 10 8 475 1831 bf 9 8 494 1831 bf 9 8 531 1831 bf 10 8 540 1831 bf 9 8 559 1831 bf 10 8 568 1831 bf 0.6 0.6 0.6 c 9 8 578 1831 bf 0.8 0.8 0.8 c 9 8 587 1831 bf 10 8 605 1831 bf 9 8 652 1831 bf 0.6 0.6 0.6 c 10 8 661 1831 bf 0.8
 0.8 0.8 c 9 8 680 1831 bf 10 8 698 1831 bf 9 8 708 1831 bf 9 8 717 1831 bf 10 8 726 1831 bf 9 8 736 1831 bf 9 8 754 1831 bf 9 8 773 1831 bf 10 8 791 1831 bf 9 8 801 1831 bf 0.6 0.6 0.6 c 10 8 819 1831 bf 0.8 0.8 0.8 c 9 8 829 1831 bf 9 8 838 1831 bf
 10 8 856 1831 bf 9 8 875 1831 bf 10 8 884 1831 bf 9 8 931 1831 bf 10 8 949 1831 bf 9 8 959 1831 bf 9 8 987 1831 bf 9 8 1033 1831 bf 10 8 1135 1831 bf 9 8 1182 1831 bf 9 8 1210 1831 bf 10 8 1228 1831 bf 9 8 1238 1831 bf 10 8 1256 1831 bf 10 7 224
 1839 bf 9 7 308 1839 bf 10 7 317 1839 bf 9 7 327 1839 bf 9 7 336 1839 bf 9 7 373 1839 bf 10 7 382 1839 bf 9 7 401 1839 bf 9 7 420 1839 bf 10 7 447 1839 bf 9 7 466 1839 bf 0.6 0.6 0.6 c 9 7 485 1839 bf 0.8 0.8 0.8 c 9 7 494 1839 bf 0.6 0.6 0.6 c 10 7
 512 1839 bf 0.8 0.8 0.8 c 9 7 522 1839 bf 9 7 531 1839 bf 10 7 540 1839 bf 9 7 550 1839 bf 0.6 0.6 0.6 c 9 7 559 1839 bf 0.8 0.8 0.8 c 9 7 596 1839 bf 9 7 615 1839 bf 9 7 624 1839 bf 10 7 633 1839 bf 9 7 643 1839 bf 9 7 689 1839 bf 10 7 698 1839 bf
 9 7 708 1839 bf 9 7 717 1839 bf 9 7 736 1839 bf 9 7 745 1839 bf 9 7 754 1839 bf 10 7 763 1839 bf 9 7 773 1839 bf 9 7 782 1839 bf 9 7 801 1839 bf 9 7 810 1839 bf 0.6 0.6 0.6 c 10 7 819 1839 bf 9 7 838 1839 bf 0.8 0.8 0.8 c 10 7 856 1839 bf 9 7 866
 1839 bf 9 7 875 1839 bf 0.6 0.6 0.6 c 9 7 894 1839 bf 0.8 0.8 0.8 c 10 7 912 1839 bf 9 7 922 1839 bf 0.6 0.6 0.6 c 9 7 940 1839 bf 0.8 0.8 0.8 c 10 7 949 1839 bf 9 7 968 1839 bf 10 7 977 1839 bf 9 7 996 1839 bf 10 7 1005 1839 bf 9 7 1015 1839 bf 9 7
 1024 1839 bf 9 7 1033 1839 bf 9 7 1061 1839 bf 9 7 1089 1839 bf 9 7 1117 1839 bf 9 7 1145 1839 bf 9 7 1182 1839 bf 9 7 1191 1839 bf 9 7 234 1846 bf 9 7 252 1846 bf 9 7 280 1846 bf 9 7 299 1846 bf 9 7 308 1846 bf 0.6 0.6 0.6 c 10 7 317 1846 bf 0.8
 0.8 0.8 c 9 7 336 1846 bf 9 7 345 1846 bf 10 7 354 1846 bf 9 7 364 1846 bf 0.6 0.6 0.6 c 9 7 373 1846 bf 0.8 0.8 0.8 c 10 7 382 1846 bf 9 7 392 1846 bf 9 7 401 1846 bf 0.6 0.6 0.6 c 10 7 410 1846 bf 9 7 420 1846 bf 0.8 0.8 0.8 c 9 7 429 1846 bf 10 7
 447 1846 bf 0.6 0.6 0.6 c 9 7 457 1846 bf 9 7 466 1846 bf 0.8 0.8 0.8 c 10 7 475 1846 bf 9 7 485 1846 bf 9 7 503 1846 bf 0.3 0.3 0.3 c 9 7 531 1846 bf 0.8 0.8 0.8 c 10 7 540 1846 bf 0.6 0.6 0.6 c 9 7 550 1846 bf 0.3 0.3 0.3 c 9 7 559 1846 bf 0.8 0.8
 0.8 c 10 7 568 1846 bf 9 7 578 1846 bf 9 7 587 1846 bf 9 7 596 1846 bf 10 7 605 1846 bf 0.6 0.6 0.6 c 9 7 615 1846 bf 0.8 0.8 0.8 c 9 7 624 1846 bf 10 7 633 1846 bf 9 7 643 1846 bf 0.6 0.6 0.6 c 10 7 661 1846 bf 9 7 671 1846 bf 9 7 680 1846 bf 0.8
 0.8 0.8 c 9 7 689 1846 bf 0.6 0.6 0.6 c 10 7 698 1846 bf 0.8 0.8 0.8 c 9 7 708 1846 bf 0.6 0.6 0.6 c 9 7 717 1846 bf 0.8 0.8 0.8 c 10 7 726 1846 bf 9 7 736 1846 bf 9 7 754 1846 bf 0.6 0.6 0.6 c 9 7 773 1846 bf 0.8 0.8 0.8 c 9 7 782 1846 bf 0.6 0.6
 0.6 c 10 7 791 1846 bf 0.8 0.8 0.8 c 9 7 801 1846 bf 9 7 810 1846 bf 10 7 819 1846 bf 9 7 829 1846 bf 0.6 0.6 0.6 c 9 7 838 1846 bf 9 7 847 1846 bf 10 7 856 1846 bf 9 7 866 1846 bf 0.8 0.8 0.8 c 9 7 894 1846 bf 9 7 903 1846 bf 10 7 912 1846 bf 0.6
 0.6 0.6 c 9 7 922 1846 bf 0.8 0.8 0.8 c 9 7 931 1846 bf 0.6 0.6 0.6 c 9 7 940 1846 bf 0.8 0.8 0.8 c 9 7 959 1846 bf 9 7 968 1846 bf 0.3 0.3 0.3 c 9 7 987 1846 bf 0.6 0.6 0.6 c 10 7 1005 1846 bf 0.8 0.8 0.8 c 9 7 1015 1846 bf 9 7 1024 1846 bf 9 7
 1061 1846 bf 9 7 1089 1846 bf 9 7 1098 1846 bf 10 7 1107 1846 bf 9 7 1117 1846 bf 9 7 1126 1846 bf 9 7 1154 1846 bf 10 7 1163 1846 bf 9 7 1173 1846 bf 9 7 1182 1846 bf 9 7 1210 1846 bf 9 7 1238 1846 bf 10 7 224 1853 bf 9 7 234 1853 bf 0.6 0.6 0.6 c
 9 7 252 1853 bf 10 7 261 1853 bf 0.8 0.8 0.8 c 9 7 271 1853 bf 9 7 280 1853 bf 10 7 289 1853 bf 0.6 0.6 0.6 c 9 7 308 1853 bf 0.8 0.8 0.8 c 10 7 317 1853 bf 0.6 0.6 0.6 c 9 7 327 1853 bf 9 7 345 1853 bf 10 7 354 1853 bf 0.8 0.8 0.8 c 9 7 364 1853 bf
 0.6 0.6 0.6 c 9 7 373 1853 bf 0.8 0.8 0.8 c 10 7 382 1853 bf 9 7 392 1853 bf 9 7 401 1853 bf 10 7 410 1853 bf 9 7 420 1853 bf 0.6 0.6 0.6 c 9 7 429 1853 bf 0.8 0.8 0.8 c 9 7 438 1853 bf 0.6 0.6 0.6 c 10 7 447 1853 bf 0.8 0.8 0.8 c 9 7 457 1853 bf
 0.6 0.6 0.6 c 9 7 466 1853 bf 10 7 475 1853 bf 9 7 485 1853 bf 9 7 494 1853 bf 0.8 0.8 0.8 c 9 7 503 1853 bf 0.6 0.6 0.6 c 10 7 512 1853 bf 9 7 522 1853 bf 9 7 531 1853 bf 10 7 540 1853 bf 9 7 550 1853 bf 9 7 559 1853 bf 10 7 568 1853 bf 0.3 0.3 0.3
 c 9 7 587 1853 bf 0.6 0.6 0.6 c 9 7 596 1853 bf 0.3 0.3 0.3 c 10 7 605 1853 bf 0.6 0.6 0.6 c 9 7 615 1853 bf 0.8 0.8 0.8 c 9 7 624 1853 bf 0.6 0.6 0.6 c 10 7 633 1853 bf 0.8 0.8 0.8 c 9 7 643 1853 bf 10 7 661 1853 bf 0.3 0.3 0.3 c 9 7 671 1853 bf
 0.6 0.6 0.6 c 9 7 680 1853 bf 0.8 0.8 0.8 c 9 7 689 1853 bf 10 7 698 1853 bf 0.6 0.6 0.6 c 9 7 708 1853 bf 0.8 0.8 0.8 c 9 7 717 1853 bf 0.6 0.6 0.6 c 10 7 726 1853 bf 0.8 0.8 0.8 c 9 7 736 1853 bf 0.6 0.6 0.6 c 9 7 745 1853 bf 0.8 0.8 0.8 c 9 7 754
 1853 bf 10 7 763 1853 bf 9 7 773 1853 bf 0.6 0.6 0.6 c 9 7 782 1853 bf 0.8 0.8 0.8 c 10 7 791 1853 bf 0.3 0.3 0.3 c 9 7 801 1853 bf 0.8 0.8 0.8 c 9 7 810 1853 bf 10 7 819 1853 bf 9 7 829 1853 bf 0.6 0.6 0.6 c 9 7 838 1853 bf 0.8 0.8 0.8 c 9 7 847
 1853 bf 0.6 0.6 0.6 c 9 7 866 1853 bf 0.8 0.8 0.8 c 9 7 875 1853 bf 10 7 884 1853 bf 9 7 894 1853 bf 9 7 903 1853 bf 10 7 912 1853 bf 9 7 922 1853 bf 0.3 0.3 0.3 c 9 7 931 1853 bf 9 7 940 1853 bf 0.8 0.8 0.8 c 9 7 959 1853 bf 10 7 977 1853 bf 9 7
 987 1853 bf 10 7 1005 1853 bf 9 7 1015 1853 bf 10 7 1070 1853 bf 0.6 0.6 0.6 c 9 7 1080 1853 bf 9 7 1098 1853 bf 10 7 1107 1853 bf 0.8 0.8 0.8 c 9 7 1117 1853 bf 9 7 1126 1853 bf 9 7 1154 1853 bf 10 7 1163 1853 bf 9 7 1210 1853 bf 9 7 1238 1853 bf 9
 7 1247 1853 bf 10 7 1256 1853 bf 9 8 206 1860 bf 9 8 215 1860 bf 10 8 224 1860 bf 0.6 0.6 0.6 c 9 8 234 1860 bf 0.8 0.8 0.8 c 9 8 243 1860 bf 0.6 0.6 0.6 c 9 8 252 1860 bf 0.8 0.8 0.8 c 10 8 261 1860 bf 9 8 271 1860 bf 0.6 0.6 0.6 c 9 8 280 1860 bf
 0.3 0.3 0.3 c 10 8 289 1860 bf 0.8 0.8 0.8 c 9 8 299 1860 bf 0.6 0.6 0.6 c 9 8 308 1860 bf 0.8 0.8 0.8 c 10 8 317 1860 bf 0.3 0.3 0.3 c 9 8 327 1860 bf 0.8 0.78 0.67 c 9 8 336 1860 bf 0.3 0.3 0.3 c 9 8 345 1860 bf 10 8 354 1860 bf 9 8 364 1860 bf 9
 8 373 1860 bf 0.6 0.6 0.6 c 10 8 382 1860 bf 9 8 392 1860 bf 0.3 0.3 0.3 c 9 8 401 1860 bf 10 8 410 1860 bf 9 8 420 1860 bf 0.8 0.8 0.8 c 9 8 429 1860 bf 0.3 0.3 0.3 c 9 8 438 1860 bf 10 8 447 1860 bf 0.6 0.6 0.6 c 9 8 457 1860 bf 9 8 466 1860 bf
 0.3 0.3 0.3 c 10 8 475 1860 bf 9 8 485 1860 bf 0.6 0.6 0.6 c 9 8 494 1860 bf 0.8 0.78 0.67 c 9 8 503 1860 bf 0.8 0.8 0.8 c 10 8 512 1860 bf 0.6 0.6 0.6 c 9 8 522 1860 bf 0.3 0.3 0.3 c 9 8 531 1860 bf 0.6 0.6 0.6 c 10 8 540 1860 bf 0.8 0.78 0.67 c 9
 8 550 1860 bf 0.3 0.3 0.3 c 9 8 559 1860 bf 10 8 568 1860 bf 9 8 578 1860 bf 0.6 0.6 0.6 c 9 8 587 1860 bf 0.3 0.3 0.3 c 9 8 596 1860 bf 10 8 605 1860 bf 9 8 615 1860 bf 0.6 0.6 0.6 c 9 8 624 1860 bf 10 8 633 1860 bf 0.8 0.8 0.8 c 9 8 652 1860 bf
 0.6 0.6 0.6 c 10 8 661 1860 bf 0.8 0.8 0.8 c 9 8 671 1860 bf 0.3 0.3 0.3 c 9 8 680 1860 bf 9 8 689 1860 bf 10 8 698 1860 bf 0.6 0.6 0.6 c 9 8 708 1860 bf 9 8 717 1860 bf 0.8 0.8 0.8 c 10 8 726 1860 bf 0.3 0.3 0.3 c 9 8 736 1860 bf 0.8 0.8 0.8 c 9 8
 745 1860 bf 0.6 0.6 0.6 c 9 8 754 1860 bf 0.3 0.3 0.3 c 10 8 763 1860 bf 9 8 773 1860 bf 0.6 0.6 0.6 c 9 8 782 1860 bf 0.3 0.3 0.3 c 10 8 791 1860 bf 0.6 0.6 0.6 c 9 8 801 1860 bf 0.8 0.8 0.8 c 9 8 810 1860 bf 10 8 819 1860 bf 0.3 0.3 0.3 c 9 8 829
 1860 bf 9 8 838 1860 bf 0.6 0.6 0.6 c 9 8 847 1860 bf 10 8 856 1860 bf 0.3 0.3 0.3 c 9 8 866 1860 bf 0.8 0.8 0.8 c 9 8 875 1860 bf 0.3 0.3 0.3 c 10 8 884 1860 bf 0.6 0.6 0.6 c 9 8 894 1860 bf 0.3 0.3 0.3 c 9 8 903 1860 bf 0.6 0.6 0.6 c 10 8 912 1860
 bf 0.3 0.3 0.3 c 9 8 922 1860 bf 9 8 931 1860 bf 0.6 0.6 0.6 c 9 8 940 1860 bf 0.8 0.8 0.8 c 10 8 949 1860 bf 0.6 0.6 0.6 c 9 8 959 1860 bf 9 8 968 1860 bf 10 8 977 1860 bf 0.3 0.3 0.3 c 9 8 987 1860 bf 0.6 0.6 0.6 c 9 8 996 1860 bf 0.8 0.8 0.8 c 10
 8 1005 1860 bf 0.6 0.6 0.6 c 9 8 1015 1860 bf 0.3 0.3 0.3 c 9 8 1024 1860 bf 0.8 0.8 0.8 c 9 8 1033 1860 bf 9 8 1052 1860 bf 0.6 0.6 0.6 c 9 8 1061 1860 bf 0.8 0.8 0.8 c 10 8 1070 1860 bf 0.6 0.6 0.6 c 9 8 1080 1860 bf 0.8 0.8 0.8 c 9 8 1089 1860 bf
 0.6 0.6 0.6 c 9 8 1098 1860 bf 0.8 0.8 0.8 c 10 8 1107 1860 bf 0.6 0.6 0.6 c 9 8 1117 1860 bf 9 8 1126 1860 bf 10 8 1135 1860 bf 0.8 0.8 0.8 c 9 8 1145 1860 bf 10 8 1163 1860 bf 9 8 1173 1860 bf 9 8 1182 1860 bf 9 8 1191 1860 bf 0.6 0.6 0.6 c 9 8
 1210 1860 bf 0.8 0.8 0.8 c 9 8 1219 1860 bf 9 8 1238 1860 bf 0.6 0.6 0.6 c 10 7 196 1868 bf 0.8 0.8 0.8 c 9 7 206 1868 bf 9 7 215 1868 bf 0.3 0.3 0.3 c 10 7 224 1868 bf 0.8 0.78 0.67 c 9 7 234 1868 bf 0.3 0.3 0.3 c 9 7 243 1868 bf 0.8 0.78 0.67 c 9
 7 252 1868 bf 10 7 261 1868 bf 9 7 271 1868 bf 9 7 280 1868 bf 10 7 289 1868 bf 0.3 0.3 0.3 c 9 7 299 1868 bf 0.8 0.78 0.67 c 9 7 308 1868 bf 10 7 317 1868 bf 9 7 327 1868 bf 9 7 336 1868 bf 0.3 0.3 0.3 c 9 7 345 1868 bf 0.8 0.78 0.67 c 10 7 354
 1868 bf 9 7 364 1868 bf 0.3 0.3 0.3 c 9 7 373 1868 bf 0.6 0.6 0.6 c 10 7 382 1868 bf 0.8 0.78 0.67 c 9 7 392 1868 bf 9 7 401 1868 bf 10 7 410 1868 bf 9 7 420 1868 bf 9 7 429 1868 bf 9 7 438 1868 bf 10 7 447 1868 bf 9 7 457 1868 bf 0.3 0.3 0.3 c 9 7
 466 1868 bf 0.8 0.78 0.67 c 10 7 475 1868 bf 9 7 485 1868 bf 0.73 0.71 0.64 c 9 7 494 1868 bf 0.8 0.78 0.67 c 9 7 503 1868 bf 0.3 0.3 0.3 c 10 7 512 1868 bf 0.73 0.71 0.64 c 9 7 522 1868 bf 0.8 0.78 0.67 c 9 7 531 1868 bf 10 7 540 1868 bf 0.3 0.3
 0.3 c 9 7 550 1868 bf 0.8 0.78 0.67 c 9 7 559 1868 bf 10 7 568 1868 bf 9 7 578 1868 bf 9 7 587 1868 bf 9 7 596 1868 bf 10 7 605 1868 bf 9 7 615 1868 bf 9 7 624 1868 bf 0.3 0.3 0.3 c 10 7 633 1868 bf 0.8 0.78 0.67 c 9 7 643 1868 bf 0.6 0.6 0.6 c 9 7
 652 1868 bf 0.8 0.78 0.67 c 10 7 661 1868 bf 9 7 671 1868 bf 9 7 680 1868 bf 0.3 0.3 0.3 c 9 7 689 1868 bf 0.8 0.78 0.67 c 10 7 698 1868 bf 9 7 708 1868 bf 9 7 717 1868 bf 0.3 0.3 0.3 c 10 7 726 1868 bf 0.73 0.71 0.64 c 9 7 736 1868 bf 0.8 0.78 0.67
 c 9 7 745 1868 bf 9 7 754 1868 bf 10 7 763 1868 bf 9 7 773 1868 bf 9 7 782 1868 bf 0.3 0.3 0.3 c 10 7 791 1868 bf 9 7 801 1868 bf 0.8 0.78 0.67 c 9 7 810 1868 bf 0.3 0.3 0.3 c 10 7 819 1868 bf 0.8 0.78 0.67 c 9 7 829 1868 bf 0.6 0.6 0.6 c 9 7 838
 1868 bf 0.3 0.3 0.3 c 9 7 847 1868 bf 0.8 0.78 0.67 c 10 7 856 1868 bf 9 7 866 1868 bf 9 7 875 1868 bf 0.6 0.6 0.6 c 10 7 884 1868 bf 0.8 0.78 0.67 c 9 7 894 1868 bf 0.3 0.3 0.3 c 9 7 903 1868 bf 0.6 0.6 0.6 c 10 7 912 1868 bf 0.3 0.3 0.3 c 9 7 922
 1868 bf 9 7 931 1868 bf 0.8 0.78 0.67 c 9 7 940 1868 bf 0.3 0.3 0.3 c 10 7 949 1868 bf 0.8 0.78 0.67 c 9 7 959 1868 bf 9 7 968 1868 bf 10 7 977 1868 bf 0.3 0.3 0.3 c 9 7 987 1868 bf 9 7 996 1868 bf 0.6 0.6 0.6 c 10 7 1005 1868 bf 0.3 0.3 0.3 c 9 7
 1015 1868 bf 9 7 1024 1868 bf 9 7 1033 1868 bf 0.6 0.6 0.6 c 10 7 1042 1868 bf 0.3 0.3 0.3 c 9 7 1052 1868 bf 9 7 1061 1868 bf 0.8 0.8 0.8 c 10 7 1070 1868 bf 9 7 1080 1868 bf 0.6 0.6 0.6 c 9 7 1089 1868 bf 9 7 1098 1868 bf 10 7 1107 1868 bf 0.3 0.3
 0.3 c 9 7 1117 1868 bf 9 7 1126 1868 bf 0.6 0.6 0.6 c 10 7 1135 1868 bf 0.8 0.8 0.8 c 9 7 1145 1868 bf 9 7 1154 1868 bf 10 7 1163 1868 bf 9 7 1173 1868 bf 9 7 1191 1868 bf 10 7 1200 1868 bf 9 7 1219 1868 bf 10 7 1228 1868 bf 9 7 1238 1868 bf 0.6 0.6
 0.6 c 9 7 1247 1868 bf 0.3 0.3 0.3 c 9 7 178 1875 bf 0.8 0.78 0.67 c 9 7 187 1875 bf 0.72 0.64 0.61 c 10 7 196 1875 bf 9 7 206 1875 bf 9 7 215 1875 bf 0.73 0.71 0.64 c 10 7 224 1875 bf 0.72 0.64 0.61 c 9 7 234 1875 bf 9 7 243 1875 bf 9 7 252 1875 bf
 10 7 261 1875 bf 9 7 271 1875 bf 9 7 280 1875 bf 10 7 289 1875 bf 9 7 299 1875 bf 9 7 308 1875 bf 10 7 317 1875 bf 9 7 327 1875 bf 9 7 336 1875 bf 9 7 345 1875 bf 10 7 354 1875 bf 9 7 364 1875 bf 9 7 373 1875 bf 10 7 382 1875 bf 9 7 392 1875 bf 9 7
 401 1875 bf 10 7 410 1875 bf 9 7 420 1875 bf 9 7 429 1875 bf 9 7 438 1875 bf 10 7 447 1875 bf 0.73 0.71 0.64 c 9 7 457 1875 bf 0.72 0.64 0.61 c 9 7 466 1875 bf 10 7 475 1875 bf 9 7 485 1875 bf 9 7 494 1875 bf 9 7 503 1875 bf 10 7 512 1875 bf 0.73
 0.71 0.64 c 9 7 522 1875 bf 9 7 531 1875 bf 0.72 0.64 0.61 c 10 7 540 1875 bf 9 7 550 1875 bf 9 7 559 1875 bf 0.73 0.71 0.64 c 10 7 568 1875 bf 0.72 0.64 0.61 c 9 7 578 1875 bf 9 7 587 1875 bf 9 7 596 1875 bf 10 7 605 1875 bf 9 7 615 1875 bf 9 7 624
 1875 bf 0.73 0.71 0.64 c 10 7 633 1875 bf 9 7 643 1875 bf 0.72 0.64 0.61 c 9 7 652 1875 bf 10 7 661 1875 bf 0.73 0.71 0.64 c 9 7 671 1875 bf 9 7 680 1875 bf 9 7 689 1875 bf 10 7 698 1875 bf 9 7 708 1875 bf 9 7 717 1875 bf 10 7 726 1875 bf 0.72 0.64
 0.61 c 9 7 736 1875 bf 9 7 745 1875 bf 0.73 0.71 0.64 c 9 7 754 1875 bf 10 7 763 1875 bf 9 7 773 1875 bf 9 7 782 1875 bf 10 7 791 1875 bf 0.72 0.64 0.61 c 9 7 801 1875 bf 0.73 0.71 0.64 c 9 7 810 1875 bf 0.72 0.64 0.61 c 10 7 819 1875 bf 0.73 0.71
 0.64 c 9 7 829 1875 bf 9 7 838 1875 bf 9 7 847 1875 bf 10 7 856 1875 bf 9 7 866 1875 bf 9 7 875 1875 bf 10 7 884 1875 bf 9 7 894 1875 bf 9 7 903 1875 bf 0.8 0.78 0.67 c 10 7 912 1875 bf 0.73 0.71 0.64 c 9 7 922 1875 bf 9 7 931 1875 bf 9 7 940 1875
 bf 0.8 0.78 0.67 c 10 7 949 1875 bf 9 7 959 1875 bf 9 7 968 1875 bf 0.73 0.71 0.64 c 10 7 977 1875 bf 9 7 987 1875 bf 0.8 0.78 0.67 c 9 7 996 1875 bf 10 7 1005 1875 bf 9 7 1015 1875 bf 9 7 1024 1875 bf 9 7 1033 1875 bf 0.73 0.71 0.64 c 10 7 1042
 1875 bf 9 7 1052 1875 bf 0.8 0.78 0.67 c 9 7 1061 1875 bf 0.73 0.71 0.64 c 10 7 1070 1875 bf 0.8 0.78 0.67 c 9 7 1080 1875 bf 0.73 0.71 0.64 c 9 7 1089 1875 bf 0.3 0.3 0.3 c 9 7 1098 1875 bf 0.8 0.78 0.67 c 10 7 1107 1875 bf 0.3 0.3 0.3 c 9 7 1117
 1875 bf 0.8 0.78 0.67 c 9 7 1126 1875 bf 10 7 1135 1875 bf 0.3 0.3 0.3 c 9 7 1145 1875 bf 9 7 1154 1875 bf 10 7 1163 1875 bf 0.8 0.78 0.67 c 9 7 1173 1875 bf 0.6 0.6 0.6 c 9 7 1182 1875 bf 0.3 0.3 0.3 c 9 7 1191 1875 bf 10 7 1200 1875 bf 9 7 1210
 1875 bf 9 7 1219 1875 bf 0.8 0.8 0.8 c 10 7 1228 1875 bf 9 7 1238 1875 bf 0.3 0.3 0.3 c 9 7 1247 1875 bf 0.8 0.8 0.8 c 10 7 1256 1875 bf 0.6 0.6 0.6 c 9 7 1266 1875 bf black 9 7 169 1882 bf 9 7 178 1882 bf 0 1 0 c 9 7 187 1882 bf 1 0 1 c 10 7 196
 1882 bf 9 7 206 1882 bf 9 7 215 1882 bf 1 0 0 c 10 7 224 1882 bf 9 7 234 1882 bf 9 7 243 1882 bf 9 7 252 1882 bf 10 7 261 1882 bf 9 7 271 1882 bf 9 7 280 1882 bf 0.58 0.41 0.44 c 10 7 289 1882 bf 9 7 299 1882 bf 9 7 308 1882 bf 10 7 317 1882 bf 9 7
 327 1882 bf 9 7 336 1882 bf 9 7 345 1882 bf 10 7 354 1882 bf 9 7 364 1882 bf 9 7 373 1882 bf 10 7 382 1882 bf 9 7 392 1882 bf 0.67 0.56 0.58 c 9 7 401 1882 bf 10 7 410 1882 bf 9 7 420 1882 bf 9 7 429 1882 bf 9 7 438 1882 bf 10 7 447 1882 bf 9 7 457
 1882 bf 9 7 466 1882 bf 10 7 475 1882 bf 9 7 485 1882 bf 9 7 494 1882 bf 9 7 503 1882 bf 10 7 512 1882 bf 9 7 522 1882 bf 9 7 531 1882 bf 10 7 540 1882 bf 9 7 550 1882 bf 9 7 559 1882 bf 10 7 568 1882 bf 9 7 578 1882 bf 0.74 0.62 0.51 c 9 7 587 1882
 bf 9 7 596 1882 bf 10 7 605 1882 bf 9 7 615 1882 bf 9 7 624 1882 bf 10 7 633 1882 bf 9 7 643 1882 bf 9 7 652 1882 bf 10 7 661 1882 bf 9 7 671 1882 bf 9 7 680 1882 bf 9 7 689 1882 bf 10 7 698 1882 bf 9 7 708 1882 bf 9 7 717 1882 bf 10 7 726 1882 bf 9
 7 736 1882 bf 9 7 745 1882 bf 9 7 754 1882 bf 10 7 763 1882 bf 9 7 773 1882 bf 9 7 782 1882 bf 10 7 791 1882 bf 9 7 801 1882 bf 9 7 810 1882 bf 10 7 819 1882 bf 9 7 829 1882 bf 0.83 0.81 0.53 c 9 7 838 1882 bf 9 7 847 1882 bf 10 7 856 1882 bf 9 7
 866 1882 bf 9 7 875 1882 bf 10 7 884 1882 bf 9 7 894 1882 bf 9 7 903 1882 bf 10 7 912 1882 bf 9 7 922 1882 bf 9 7 931 1882 bf 9 7 940 1882 bf 10 7 949 1882 bf 9 7 959 1882 bf 9 7 968 1882 bf 10 7 977 1882 bf 9 7 987 1882 bf 9 7 996 1882 bf 10 7 1005
 1882 bf 9 7 1015 1882 bf 9 7 1024 1882 bf 9 7 1033 1882 bf 0.5 0.5 0.61 c 10 7 1042 1882 bf 9 7 1052 1882 bf 9 7 1061 1882 bf 10 7 1070 1882 bf 9 7 1080 1882 bf 9 7 1089 1882 bf 9 7 1098 1882 bf 10 7 1107 1882 bf 9 7 1117 1882 bf 9 7 1126 1882 bf 10
 7 1135 1882 bf 9 7 1145 1882 bf 9 7 1154 1882 bf 0.43 0.48 0.52 c 10 7 1163 1882 bf 9 7 1173 1882 bf 9 7 1182 1882 bf 9 7 1191 1882 bf 10 7 1200 1882 bf 9 7 1210 1882 bf 9 7 1219 1882 bf 10 7 1228 1882 bf 0.48 0.56 0.6 c 9 7 1238 1882 bf 9 7 1247
 1882 bf 10 7 1256 1882 bf 0.51 0.62 0.55 c 9 7 1266 1882 bf 0.52 0.76 0.64 c 9 7 1275 1882 bf 0.8 0.8 0.8 c 9 8 169 1889 bf 9 8 178 1889 bf 9 8 503 1889 bf 10 8 512 1889 bf 0.6 0.6 0.6 c 9 8 522 1889 bf 0.8 0.8 0.8 c 9 8 531 1889 bf 10 8 540 1889 bf
 0.3 0.3 0.3 c 9 8 550 1889 bf 0.6 0.6 0.6 c 9 8 559 1889 bf 0.8 0.8 0.8 c 10 8 568 1889 bf 0.3 0.3 0.3 c 9 8 578 1889 bf 9 8 587 1889 bf 0.8 0.78 0.67 c 9 8 596 1889 bf 0.3 0.3 0.3 c 10 8 605 1889 bf 9 8 615 1889 bf 9 8 624 1889 bf 10 8 633 1889 bf
 9 8 643 1889 bf 0.8 0.78 0.67 c 9 8 652 1889 bf 0.3 0.3 0.3 c 10 8 661 1889 bf 0.8 0.78 0.67 c 9 8 671 1889 bf 0.6 0.6 0.6 c 9 8 680 1889 bf 0.8 0.78 0.67 c 9 8 689 1889 bf 10 8 698 1889 bf 9 8 708 1889 bf 9 8 717 1889 bf 0.73 0.71 0.64 c 10 8 726
 1889 bf 0.8 0.78 0.67 c 9 8 736 1889 bf 9 8 745 1889 bf 0.73 0.71 0.64 c 9 8 754 1889 bf 0.8 0.78 0.67 c 10 8 763 1889 bf 0.73 0.71 0.64 c 9 8 773 1889 bf 0.8 0.78 0.67 c 9 8 782 1889 bf 0.73 0.71 0.64 c 10 8 791 1889 bf 0.8 0.78 0.67 c 9 8 801 1889
 bf 0.73 0.71 0.64 c 9 8 810 1889 bf 10 8 819 1889 bf 0.8 0.78 0.67 c 9 8 829 1889 bf 9 8 838 1889 bf 0.73 0.71 0.64 c 9 8 847 1889 bf 10 8 856 1889 bf 9 8 866 1889 bf 9 8 875 1889 bf 10 8 884 1889 bf 0.8 0.78 0.67 c 9 8 894 1889 bf 0.73 0.71 0.64 c
 9 8 903 1889 bf 10 8 912 1889 bf 9 8 922 1889 bf 9 8 931 1889 bf 9 8 940 1889 bf 10 8 949 1889 bf 0.8 0.78 0.67 c 9 8 959 1889 bf 9 8 968 1889 bf 0.73 0.71 0.64 c 10 8 977 1889 bf 0.8 0.78 0.67 c 9 8 987 1889 bf 0.73 0.71 0.64 c 9 8 996 1889 bf 10 8
 1005 1889 bf 9 8 1015 1889 bf 9 8 1024 1889 bf 9 8 1033 1889 bf 10 8 1042 1889 bf 0.8 0.78 0.67 c 9 8 1052 1889 bf 0.73 0.71 0.64 c 9 8 1061 1889 bf 10 8 1070 1889 bf 9 8 1080 1889 bf 9 8 1089 1889 bf 9 8 1098 1889 bf 10 8 1107 1889 bf 9 8 1117 1889
 bf 9 8 1126 1889 bf 0.8 0.78 0.67 c 10 8 1135 1889 bf 9 8 1145 1889 bf 9 8 1154 1889 bf 10 8 1163 1889 bf 0.73 0.71 0.64 c 9 8 1173 1889 bf 0.8 0.78 0.67 c 9 8 1182 1889 bf 9 8 1191 1889 bf 0.3 0.3 0.3 c 10 8 1200 1889 bf 0.8 0.78 0.67 c 9 8 1210
 1889 bf 0.3 0.3 0.3 c 9 8 1219 1889 bf 0.8 0.78 0.67 c 10 8 1228 1889 bf 9 8 1238 1889 bf 9 8 1247 1889 bf 0.6 0.6 0.6 c 10 8 1256 1889 bf 0.3 0.3 0.3 c 9 8 1266 1889 bf 0.8 0.8 0.8 c 9 8 1275 1889 bf 9 7 169 1897 bf 9 7 178 1897 bf 9 7 271 1897 bf
 9 7 717 1897 bf 9 7 736 1897 bf 9 7 754 1897 bf 9 7 773 1897 bf 9 7 782 1897 bf 9 7 810 1897 bf 10 7 819 1897 bf 9 7 829 1897 bf 9 7 838 1897 bf 9 7 847 1897 bf 10 7 856 1897 bf 0.6 0.6 0.6 c 9 7 866 1897 bf 0.8 0.8 0.8 c 9 7 875 1897 bf 0.6 0.6 0.6
 c 10 7 884 1897 bf 9 7 894 1897 bf 0.8 0.8 0.8 c 9 7 903 1897 bf 10 7 912 1897 bf 9 7 922 1897 bf 9 7 931 1897 bf 0.6 0.6 0.6 c 9 7 940 1897 bf 0.8 0.8 0.8 c 10 7 949 1897 bf 9 7 959 1897 bf 0.6 0.6 0.6 c 9 7 968 1897 bf 10 7 977 1897 bf 0.8 0.8 0.8
 c 9 7 987 1897 bf 0.6 0.6 0.6 c 9 7 996 1897 bf 10 7 1005 1897 bf 0.8 0.8 0.8 c 9 7 1015 1897 bf 0.3 0.3 0.3 c 9 7 1024 1897 bf 0.6 0.6 0.6 c 9 7 1033 1897 bf 0.8 0.8 0.8 c 9 7 1052 1897 bf 0.8 0.78 0.67 c 9 7 1061 1897 bf 0.6 0.6 0.6 c 10 7 1070
 1897 bf 0.3 0.3 0.3 c 9 7 1080 1897 bf 0.8 0.8 0.8 c 9 7 1089 1897 bf 0.6 0.6 0.6 c 9 7 1098 1897 bf 10 7 1107 1897 bf 0.3 0.3 0.3 c 9 7 1117 1897 bf 0.6 0.6 0.6 c 9 7 1126 1897 bf 0.8 0.8 0.8 c 10 7 1135 1897 bf 9 7 1145 1897 bf 9 7 1154 1897 bf
 0.6 0.6 0.6 c 10 7 1163 1897 bf 0.8 0.8 0.8 c 9 7 1173 1897 bf 9 7 1182 1897 bf 0.6 0.6 0.6 c 9 7 1191 1897 bf 0.8 0.8 0.8 c 10 7 1200 1897 bf 0.6 0.6 0.6 c 9 7 1210 1897 bf 0.3 0.3 0.3 c 9 7 1219 1897 bf 0.6 0.6 0.6 c 10 7 1228 1897 bf 0.8 0.8 0.8
 c 9 7 1247 1897 bf 9 7 745 1904 bf 9 7 847 1904 bf 10 7 912 1904 bf 9 7 922 1904 bf 9 7 931 1904 bf 9 7 959 1904 bf 9 7 968 1904 bf 10 7 977 1904 bf 9 7 987 1904 bf 9 7 1024 1904 bf 9 7 1033 1904 bf 0.6 0.6 0.6 c 10 7 1042 1904 bf 0.8 0.8 0.8 c 9 7
 1061 1904 bf 9 7 1080 1904 bf 9 7 1089 1904 bf 0.6 0.6 0.6 c 9 7 1098 1904 bf 0.8 0.8 0.8 c 10 7 1107 1904 bf 9 7 1126 1904 bf 10 7 1135 1904 bf 9 7 1154 1904 bf 9 7 1173 1904 bf 9 7 1182 1904 bf 9 7 1191 1904 bf 9 7 1210 1904 bf 9 7 1219 1904 bf 10
 7 1228 1904 bf 9 7 1247 1904 bf 9 7 838 1911 bf 9 7 968 1911 bf 10 7 1005 1911 bf 9 7 1024 1911 bf 9 7 1033 1911 bf 10 7 1042 1911 bf 9 7 1052 1911 bf 10 7 1070 1911 bf 9 7 1080 1911 bf 10 7 1107 1911 bf 9 7 1126 1911 bf 9 7 1154 1911 bf 9 8 178
 1918 bf 9 8 968 1918 bf 9 8 1089 1918 bf 9 7 1033 1926 bf 10 7 1042 1926 bf 9 7 1117 1926 bf 9 7 1126 1926 bf 9 7 1191 1926 bf 9 7 1080 1933 bf 10 7 1200 1933 bf 9 8 252 1940 bf 9 7 206 2042 bf 1 1 1 c black 169 1265 m 1115 X s
 gsave  1250 1184
 t 0 r 0 0 m /Helvetica-Bold findfont 40.9897 sf 0 0 m (Q) show  gr  169 1292 m -27 Y s 191 1278 m -13 Y s 213 1278 m -13 Y s 235 1278 m -13 Y s 258 1278 m -13 Y s 280 1292 m -27 Y s 302 1278 m -13 Y s 325 1278 m -13 Y s 347 1278 m -13 Y s 369 1278 m
 -13 Y s 392 1292 m -27 Y s 414 1278 m -13 Y s 436 1278 m -13 Y s 459 1278 m -13 Y s 481 1278 m -13 Y s 503 1292 m -27 Y s 525 1278 m -13 Y s 548 1278 m -13 Y s 570 1278 m -13 Y s 592 1278 m -13 Y s 615 1292 m -27 Y s 637 1278 m -13 Y s 659 1278 m
 -13 Y s 682 1278 m -13 Y s 704 1278 m -13 Y s 726 1292 m -27 Y s 749 1278 m -13 Y s 771 1278 m -13 Y s 793 1278 m -13 Y s 816 1278 m -13 Y s 838 1292 m -27 Y s 860 1278 m -13 Y s 882 1278 m -13 Y s 905 1278 m -13 Y s 927 1278 m -13 Y s 949 1292 m
 -27 Y s 972 1278 m -13 Y s 994 1278 m -13 Y s 1016 1278 m -13 Y s 1039 1278 m -13 Y s 1061 1292 m -27 Y s 1083 1278 m -13 Y s 1106 1278 m -13 Y s 1128 1278 m -13 Y s 1150 1278 m -13 Y s 1173 1292 m -27 Y s 1195 1278 m -13 Y s 1217 1278 m -13 Y s
 1239 1278 m -13 Y s 1262 1278 m -13 Y s 1284 1292 m -27 Y s
 gsave  157 1227
 t 0 r 0 0 m /Helvetica-Bold findfont 40.9897 sf 0 0 m (0) show  gr 
 gsave  253 1227
 t 0 r 0 0 m /Helvetica-Bold findfont 40.9897 sf 0 0 m (0.1) show  gr 
 gsave  362 1227
 t 0 r 0 0 m /Helvetica-Bold findfont 40.9897 sf 0 0 m (0.2) show  gr 
 gsave  474 1227
 t 0 r 0 0 m /Helvetica-Bold findfont 40.9897 sf 0 0 m (0.3) show  gr 
 gsave  585 1227
 t 0 r 0 0 m /Helvetica-Bold findfont 40.9897 sf 0 0 m (0.4) show  gr 
 gsave  697 1227
 t 0 r 0 0 m /Helvetica-Bold findfont 40.9897 sf 0 0 m (0.5) show  gr 
 gsave  806 1227
 t 0 r 0 0 m /Helvetica-Bold findfont 40.9897 sf 0 0 m (0.6) show  gr 
 gsave  918 1227
 t 0 r 0 0 m /Helvetica-Bold findfont 40.9897 sf 0 0 m (0.7) show  gr 
 gsave  1029 1227
 t 0 r 0 0 m /Helvetica-Bold findfont 40.9897 sf 0 0 m (0.8) show  gr 
 gsave  1141 1227
 t 0 r 0 0 m /Helvetica-Bold findfont 40.9897 sf 0 0 m (0.9) show  gr 
 gsave  1273 1227
 t 0 r 0 0 m /Helvetica-Bold findfont 40.9897 sf 0 0 m (1) show  gr  169 1265 m 871 Y s
 gsave  98 2054
 t 90 r 0 0 m /Helvetica-Bold findfont 27.3265 sf 0 0 m (before) show  gr 
 gsave  84 2008
 t 90 r 0 0 m /Helvetica-Bold findfont 40.9897 sf 0 0 m (-Q) show  gr 
 gsave  98 1947
 t 90 r 0 0 m /Helvetica-Bold findfont 27.3265 sf 0 0 m (after) show  gr 
 gsave  84 1915
 t 90 r 0 0 m /Helvetica-Bold findfont 40.9897 sf 0 0 m (Q) show  gr  202 1265 m -33 X s 185 1290 m -16 X s 185 1315 m -16 X s 185 1340 m -16 X s 185 1365 m -16 X s 202 1390 m -33 X s 185 1415 m -16 X s 185 1440 m -16 X s 185 1464 m -16 X s 185 1489
 m -16 X s 202 1514 m -33 X s 185 1539 m -16 X s 185 1564 m -16 X s 185 1589 m -16 X s 185 1614 m -16 X s 202 1639 m -33 X s 185 1663 m -16 X s 185 1688 m -16 X s 185 1713 m -16 X s 185 1738 m -16 X s 202 1763 m -33 X s 185 1788 m -16 X s 185 1813 m
 -16 X s 185 1838 m -16 X s 185 1863 m -16 X s 202 1887 m -33 X s 185 1912 m -16 X s 185 1937 m -16 X s 185 1962 m -16 X s 185 1987 m -16 X s 202 2012 m -33 X s 185 2037 m -16 X s 185 2062 m -16 X s 185 2086 m -16 X s 185 2111 m -16 X s 202 2136 m
 -33 X s
 gsave  89 1255
 t 0 r 0 0 m /Helvetica-Bold findfont 40.9897 sf 0 0 m (-0.5) show  gr 
 gsave  89 1380
 t 0 r 0 0 m /Helvetica-Bold findfont 40.9897 sf 0 0 m (-0.4) show  gr 
 gsave  89 1505
 t 0 r 0 0 m /Helvetica-Bold findfont 40.9897 sf 0 0 m (-0.3) show  gr 
 gsave  89 1628
 t 0 r 0 0 m /Helvetica-Bold findfont 40.9897 sf 0 0 m (-0.2) show  gr 
 gsave  93 1753
 t 0 r 0 0 m /Helvetica-Bold findfont 40.9897 sf 0 0 m (-0.1) show  gr 
 gsave  123 1876
 t 0 r 0 0 m /Helvetica-Bold findfont 40.9897 sf 0 0 m (-0) show  gr 
 gsave  107 2001
 t 0 r 0 0 m /Helvetica-Bold findfont 40.9897 sf 0 0 m (0.1) show  gr 
 gsave  102 2127
 t 0 r 0 0 m /Helvetica-Bold findfont 40.9897 sf 0 0 m (0.2) show  gr  0.95 0.95 0.95 c 572 55 43 2185 bf black 50 2185 m -4 Y 570 X 52 Y -5 X -48 Y f 43 2185 m 55 Y 572 X -55 Y -572 X cl s 1 1 1 c black
 gsave  93 2197
 t 0 r 0 0 m /Helvetica-Bold findfont 43.2669 sf 0 0 m (More Energetic photon) show  gr  0.95 0.95 0.95 c 1394 1088 1482 1157 bf 1 1 1 c 1482 1157 m 2 2 d 1084 Y 1390 X 2 2 d -1394 X -1088 Y f 0.665 0.665 0.665 c 1482 1157 m 2 2 d 1390 X 1084 Y 2 2 d
 -1088 Y -1394 X f black 0.95 0.95 0.95 c 1113 872 1621 1266 bf 1 1 1 c 1621 1266 m 1 1 d 870 Y 1111 X 1 1 d -1113 X -872 Y f 0.665 0.665 0.665 c 1621 1266 m 1 1 d 1111 X 870 Y 1 1 d -872 Y -1113 X f black 1113 872 1621 1266 bl 0.95 0.95 0.95 c 1113
 872 1621 1266 bf 1 1 1 c 1621 1266 m 1 1 d 870 Y 1111 X 1 1 d -1113 X -872 Y f 0.665 0.665 0.665 c 1621 1266 m 1 1 d 1111 X 870 Y 1 1 d -872 Y -1113 X f black 1113 872 1621 1266 bl 1 0 0 c 1 1 1 c black 1 0 0 c 1622 2081 m 8 X -59 Y 10 X -45 Y 9 X
 -31 Y 9 X -22 Y 9 X -18 Y 10 X -15 Y 9 X -13 Y 9 X -11 Y 10 X -10 Y 9 X -9 Y 9 X -9 Y 9 X -7 Y 10 X -7 Y 9 X -6 Y 9 X -7 Y 10 X -6 Y 9 X -5 Y 9 X -5 Y 9 X -5 Y 10 X -5 Y 9 X -4 Y 9 X -4 Y 9 X -4 Y 10 X -5 Y 9 X -3 Y 9 X -4 Y 10 X -4 Y 9 X -3 Y 9 X
 -4 Y 9 X -3 Y 10 X -3 Y 9 X -3 Y 9 X -4 Y 10 X -2 Y 9 X -4 Y 9 X -2 Y 9 X -3 Y 10 X -3 Y 9 X -3 Y 9 X -2 Y 9 X -3 Y 10 X -3 Y 9 X -3 Y 9 X -2 Y 10 X -3 Y 9 X -2 Y 9 X -2 Y 9 X -2 Y 10 X -3 Y 9 X -3 Y 9 X -3 Y 10 X -2 Y 9 X -2 Y 9 X -2 Y 9 X -3 Y 10
 X -2 Y 9 X -2 Y 9 X -2 Y 10 X -2 Y 9 X -3 Y 9 X -3 Y 9 X -3 Y 10 X -1 Y 9 X -3 Y 9 X -2 Y 9 X -2 Y 10 X -3 Y 9 X -3 Y 9 X -2 Y 10 X -2 Y 9 X -3 Y 9 X -3 Y 9 X -1 Y 10 X -2 Y 9 X -3 Y 9 X -3 Y 10 X -2 Y 9 X -2 Y 9 X -3 Y 9 X -3 Y 10 X -2 Y 9 X -4 Y 9
 X -2 Y 9 X -2 Y 10 X -3 Y 9 X -3 Y 9 X -4 Y 10 X -3 Y 9 X -3 Y 9 X -5 Y 19 X -5 Y 9 X -3 Y 9 X -2 Y 10 X -4 Y 9 X -5 Y 9 X -2 Y 9 X -6 Y 10 X -4 Y 9 X -5 Y 9 X -3 Y 9 X -2 Y 10 X -7 Y 9 X -4 Y 9 X -8 Y 10 X -5 Y 9 X -6 Y 9 X -6 Y 9 X -8 Y 10 X -6 Y
 9 X -10 Y 9 X -7 Y 10 X -12 Y 9 X -14 Y 9 X -12 Y 9 X -17 Y 10 X -21 Y 9 X -30 Y 9 X -48 Y 8 X s black 1621 1266 m 1113 X s
 gsave  2703 1184
 t 0 r 0 0 m /Helvetica-Bold findfont 40.9897 sf 0 0 m (Q) show  gr  1621 1292 m -26 Y s 1643 1279 m -13 Y s 1666 1279 m -13 Y s 1688 1279 m -13 Y s 1710 1279 m -13 Y s 1732 1292 m -26 Y s 1755 1279 m -13 Y s 1777 1279 m -13 Y s 1799 1279 m -13 Y s
 1822 1279 m -13 Y s 1844 1292 m -26 Y s 1866 1279 m -13 Y s 1888 1279 m -13 Y s 1911 1279 m -13 Y s 1933 1279 m -13 Y s 1955 1292 m -26 Y s 1977 1279 m -13 Y s 2000 1279 m -13 Y s 2022 1279 m -13 Y s 2044 1279 m -13 Y s 2066 1292 m -26 Y s 2089 1279
 m -13 Y s 2111 1279 m -13 Y s 2133 1279 m -13 Y s 2156 1279 m -13 Y s 2178 1292 m -26 Y s 2200 1279 m -13 Y s 2222 1279 m -13 Y s 2245 1279 m -13 Y s 2267 1279 m -13 Y s 2289 1292 m -26 Y s 2311 1279 m -13 Y s 2334 1279 m -13 Y s 2356 1279 m -13 Y s
 2378 1279 m -13 Y s 2400 1292 m -26 Y s 2423 1279 m -13 Y s 2445 1279 m -13 Y s 2467 1279 m -13 Y s 2490 1279 m -13 Y s 2512 1292 m -26 Y s 2534 1279 m -13 Y s 2556 1279 m -13 Y s 2579 1279 m -13 Y s 2601 1279 m -13 Y s 2623 1292 m -26 Y s 2645 1279
 m -13 Y s 2668 1279 m -13 Y s 2690 1279 m -13 Y s 2712 1279 m -13 Y s 2734 1292 m -26 Y s
 gsave  1610 1227
 t 0 r 0 0 m /Helvetica-Bold findfont 40.9897 sf 0 0 m (0) show  gr 
 gsave  1703 1227
 t 0 r 0 0 m /Helvetica-Bold findfont 40.9897 sf 0 0 m (0.1) show  gr 
 gsave  1812 1227
 t 0 r 0 0 m /Helvetica-Bold findfont 40.9897 sf 0 0 m (0.2) show  gr 
 gsave  1924 1227
 t 0 r 0 0 m /Helvetica-Bold findfont 40.9897 sf 0 0 m (0.3) show  gr 
 gsave  2035 1227
 t 0 r 0 0 m /Helvetica-Bold findfont 40.9897 sf 0 0 m (0.4) show  gr 
 gsave  2147 1227
 t 0 r 0 0 m /Helvetica-Bold findfont 40.9897 sf 0 0 m (0.5) show  gr 
 gsave  2259 1227
 t 0 r 0 0 m /Helvetica-Bold findfont 40.9897 sf 0 0 m (0.6) show  gr 
 gsave  2370 1227
 t 0 r 0 0 m /Helvetica-Bold findfont 40.9897 sf 0 0 m (0.7) show  gr 
 gsave  2482 1227
 t 0 r 0 0 m /Helvetica-Bold findfont 40.9897 sf 0 0 m (0.8) show  gr 
 gsave  2593 1227
 t 0 r 0 0 m /Helvetica-Bold findfont 40.9897 sf 0 0 m (0.9) show  gr 
 gsave  2725 1227
 t 0 r 0 0 m /Helvetica-Bold findfont 40.9897 sf 0 0 m (1) show  gr  1621 1266 m 872 Y s 1638 1276 m -17 X s 1638 1302 m -17 X s 1638 1322 m -17 X s 1638 1338 m -17 X s 1638 1352 m -17 X s 1638 1364 m -17 X s 1638 1374 m -17 X s 1655 1384 m -34 X s
 /xs 0 def (10) /Helvetica-Bold 40.9897 stwn  gsave  1596 1366
 t 0 r  xs neg 0 t 0 0 m /Helvetica-Bold findfont 40.9897 sf 0 0 m (10) show  gr 
 gsave  1596 1397
 t 0 r 0 0 m /Helvetica-Bold findfont 25.0493 sf 0 0 m (3) show  gr  1638 1446 m -17 X s 1638 1482 m -17 X s 1638 1508 m -17 X s 1638 1528 m -17 X s 1638 1544 m -17 X s 1638 1558 m -17 X s 1638 1570 m -17 X s 1638 1580 m -17 X s 1655 1590 m -34 X s
 /xs 0 def (10) /Helvetica-Bold 40.9897 stwn  gsave  1596 1572
 t 0 r  xs neg 0 t 0 0 m /Helvetica-Bold findfont 40.9897 sf 0 0 m (10) show  gr 
 gsave  1596 1603
 t 0 r 0 0 m /Helvetica-Bold findfont 25.0493 sf 0 0 m (4) show  gr  1638 1652 m -17 X s 1638 1688 m -17 X s 1638 1713 m -17 X s 1638 1733 m -17 X s 1638 1750 m -17 X s 1638 1764 m -17 X s 1638 1775 m -17 X s 1638 1786 m -17 X s 1655 1795 m -34 X s
 /xs 0 def (10) /Helvetica-Bold 40.9897 stwn  gsave  1596 1778
 t 0 r  xs neg 0 t 0 0 m /Helvetica-Bold findfont 40.9897 sf 0 0 m (10) show  gr 
 gsave  1596 1808
 t 0 r 0 0 m /Helvetica-Bold findfont 25.0493 sf 0 0 m (5) show  gr  1638 1857 m -17 X s 1638 1894 m -17 X s 1638 1919 m -17 X s 1638 1939 m -17 X s 1638 1956 m -17 X s 1638 1969 m -17 X s 1638 1981 m -17 X s 1638 1992 m -17 X s 1655 2001 m -34 X s
 /xs 0 def (10) /Helvetica-Bold 40.9897 stwn  gsave  1596 1984
 t 0 r  xs neg 0 t 0 0 m /Helvetica-Bold findfont 40.9897 sf 0 0 m (10) show  gr 
 gsave  1596 2014
 t 0 r 0 0 m /Helvetica-Bold findfont 25.0493 sf 0 0 m (6) show  gr  1638 2063 m -17 X s 1638 2099 m -17 X s 1638 2125 m -17 X s 0.95 0.95 0.95 c 624 55 1496 2185 bf black 1502 2185 m -4 Y 623 X 52 Y -5 X -48 Y f 1496 2185 m 55 Y 624 X -55 Y -624 X
 cl s 1 1 1 c black
 gsave  1548 2199
 t 0 r 0 0 m /Helvetica-Bold findfont 43.2669 sf 0 0 m (Distribution of Q variable) show  gr  0.95 0.95 0.95 c 1395 1091 1487 20 bf 1 1 1 c 1487 20 m 2 2 d 1087 Y 1391 X 2 2 d -1395 X -1091 Y f 0.665 0.665 0.665 c 1487 20 m 2 2 d 1391 X 1087 Y 2 2 d
 -1091 Y -1395 X f black
 gsave  1692 606
 t 0 r 0 0 m /Helvetica-Bold findfont 68.3047 sf 0 0 m (More energetic \(harder\) photon) show  gr  0.95 0.95 0.95 c 1395 1088 29 23 bf 1 1 1 c 29 23 m 2 2 d 1084 Y 1391 X 2 2 d -1395 X -1088 Y f 0.665 0.665 0.665 c 29 23 m 2 2 d 1391 X 1084 Y 2 2 d
 -1088 Y -1395 X f black 0.95 0.95 0.95 c 1114 872 168 132 bf 1 1 1 c 168 132 m 1 1 d 870 Y 1112 X 1 1 d -1114 X -872 Y f 0.665 0.665 0.665 c 168 132 m 1 1 d 1112 X 870 Y 1 1 d -872 Y -1114 X f black 1114 872 168 132 bl 0.95 0.95 0.95 c 1114 872 168
 132 bf 1 1 1 c 168 132 m 1 1 d 870 Y 1112 X 1 1 d -1114 X -872 Y f 0.665 0.665 0.665 c 168 132 m 1 1 d 1112 X 870 Y 1 1 d -872 Y -1114 X f black 1114 872 168 132 bl 0 1 0 c 1 1 1 c black 0 1 0 c 170 132 m 221 X 36 Y 9 X -36 Y 19 X 36 Y 9 X -36 Y 28
 X 36 Y 9 X -36 Y 19 X 36 Y 9 X -36 Y 28 X 72 Y 9 X -72 Y 65 X 36 Y 10 X -36 Y 27 X 36 Y 19 X -36 Y 9 X 36 Y 10 X -36 Y 9 X 36 Y 28 X 36 Y 9 X -72 Y 9 X 36 Y 9 X 57 Y 10 X -21 Y 9 X 48 Y 9 X -48 Y 10 X 21 Y 9 X 51 Y 9 X -7 Y 9 X 23 Y 10 X -10 Y 9 X
 27 Y 9 X -22 Y 10 X 28 Y 9 X 8 Y 9 X 5 Y 9 X 16 Y 10 X 10 Y 9 X 20 Y 9 X 13 Y 9 X 12 Y 10 X 35 Y 9 X 14 Y 9 X 35 Y 10 X 40 Y 9 X 65 Y 9 X 383 Y 9 X -436 Y 10 X -114 Y 9 X -62 Y 9 X -58 Y 10 X -76 Y 9 X 27 Y 9 X -48 Y 9 X -36 Y 10 X -36 Y 120 X 36 Y
 10 X -36 Y 110 X s black 168 132 m 1114 X s
 gsave  1198 41
 t 0 r 0 0 m /Helvetica-Bold findfont 27.3265 sf 0 0 m (before) show  gr 
 gsave  1129 55
 t 0 r 0 0 m /Helvetica-Bold findfont 40.9897 sf 0 0 m ( - Q) show  gr 
 gsave  1068 41
 t 0 r 0 0 m /Helvetica-Bold findfont 27.3265 sf 0 0 m (after) show  gr 
 gsave  1036 55
 t 0 r 0 0 m /Helvetica-Bold findfont 40.9897 sf 0 0 m (Q) show  gr  168 158 m -26 Y s 200 145 m -13 Y s 232 145 m -13 Y s 264 145 m -13 Y s 296 145 m -13 Y s 328 158 m -26 Y s 359 145 m -13 Y s 391 145 m -13 Y s 423 145 m -13 Y s 455 145 m -13 Y s
 487 158 m -26 Y s 518 145 m -13 Y s 550 145 m -13 Y s 582 145 m -13 Y s 614 145 m -13 Y s 646 158 m -26 Y s 677 145 m -13 Y s 709 145 m -13 Y s 741 145 m -13 Y s 773 145 m -13 Y s 805 158 m -26 Y s 837 145 m -13 Y s 868 145 m -13 Y s 900 145 m -13 Y
 s 932 145 m -13 Y s 964 158 m -26 Y s 996 145 m -13 Y s 1027 145 m -13 Y s 1059 145 m -13 Y s 1091 145 m -13 Y s 1123 158 m -26 Y s 1155 145 m -13 Y s 1186 145 m -13 Y s 1218 145 m -13 Y s 1250 145 m -13 Y s 1282 158 m -26 Y s
 gsave  132 93
 t 0 r 0 0 m /Helvetica-Bold findfont 40.9897 sf 0 0 m (-0.5) show  gr 
 gsave  289 93
 t 0 r 0 0 m /Helvetica-Bold findfont 40.9897 sf 0 0 m (-0.4) show  gr 
 gsave  449 93
 t 0 r 0 0 m /Helvetica-Bold findfont 40.9897 sf 0 0 m (-0.3) show  gr 
 gsave  608 93
 t 0 r 0 0 m /Helvetica-Bold findfont 40.9897 sf 0 0 m (-0.2) show  gr 
 gsave  770 93
 t 0 r 0 0 m /Helvetica-Bold findfont 40.9897 sf 0 0 m (-0.1) show  gr 
 gsave  945 93
 t 0 r 0 0 m /Helvetica-Bold findfont 40.9897 sf 0 0 m (-0) show  gr 
 gsave  1095 93
 t 0 r 0 0 m /Helvetica-Bold findfont 40.9897 sf 0 0 m (0.1) show  gr 
 gsave  1252 93
 t 0 r 0 0 m /Helvetica-Bold findfont 40.9897 sf 0 0 m (0.2) show  gr  168 132 m 872 Y s 185 132 m -17 X s 185 142 m -17 X s 185 150 m -17 X s 185 156 m -17 X s 185 163 m -17 X s 202 168 m -34 X s
 /xs 0 def (1) /Helvetica-Bold 40.9897 stwn  gsave  143 151
 t 0 r  xs neg 0 t 0 0 m /Helvetica-Bold findfont 40.9897 sf 0 0 m (1) show  gr  185 204 m -17 X s 185 225 m -17 X s 185 240 m -17 X s 185 252 m -17 X s 185 261 m -17 X s 185 269 m -17 X s 185 276 m -17 X s 185 282 m -17 X s 202 287 m -34 X s
 /xs 0 def (10) /Helvetica-Bold 40.9897 stwn  gsave  143 270
 t 0 r  xs neg 0 t 0 0 m /Helvetica-Bold findfont 40.9897 sf 0 0 m (10) show  gr  185 323 m -17 X s 185 344 m -17 X s 185 359 m -17 X s 185 371 m -17 X s 185 380 m -17 X s 185 388 m -17 X s 185 395 m -17 X s 185 402 m -17 X s 202 407 m -34 X s
 /xs 0 def (10) /Helvetica-Bold 40.9897 stwn  gsave  143 390
 t 0 r  xs neg 0 t 0 0 m /Helvetica-Bold findfont 40.9897 sf 0 0 m (10) show  gr 
 gsave  144 420
 t 0 r 0 0 m /Helvetica-Bold findfont 25.0493 sf 0 0 m (2) show  gr  185 443 m -17 X s 185 464 m -17 X s 185 479 m -17 X s 185 490 m -17 X s 185 500 m -17 X s 185 508 m -17 X s 185 515 m -17 X s 185 521 m -17 X s 202 526 m -34 X s
 /xs 0 def (10) /Helvetica-Bold 40.9897 stwn  gsave  143 509
 t 0 r  xs neg 0 t 0 0 m /Helvetica-Bold findfont 40.9897 sf 0 0 m (10) show  gr 
 gsave  144 540
 t 0 r 0 0 m /Helvetica-Bold findfont 25.0493 sf 0 0 m (3) show  gr  185 562 m -17 X s 185 583 m -17 X s 185 598 m -17 X s 185 610 m -17 X s 185 619 m -17 X s 185 627 m -17 X s 185 634 m -17 X s 185 640 m -17 X s 202 646 m -34 X s
 /xs 0 def (10) /Helvetica-Bold 40.9897 stwn  gsave  143 629
 t 0 r  xs neg 0 t 0 0 m /Helvetica-Bold findfont 40.9897 sf 0 0 m (10) show  gr 
 gsave  144 659
 t 0 r 0 0 m /Helvetica-Bold findfont 25.0493 sf 0 0 m (4) show  gr  185 682 m -17 X s 185 703 m -17 X s 185 718 m -17 X s 185 729 m -17 X s 185 739 m -17 X s 185 747 m -17 X s 185 754 m -17 X s 185 760 m -17 X s 202 765 m -34 X s
 /xs 0 def (10) /Helvetica-Bold 40.9897 stwn  gsave  143 748
 t 0 r  xs neg 0 t 0 0 m /Helvetica-Bold findfont 40.9897 sf 0 0 m (10) show  gr 
 gsave  144 778
 t 0 r 0 0 m /Helvetica-Bold findfont 25.0493 sf 0 0 m (5) show  gr  185 801 m -17 X s 185 822 m -17 X s 185 837 m -17 X s 185 849 m -17 X s 185 858 m -17 X s 185 866 m -17 X s 185 873 m -17 X s 185 879 m -17 X s 202 885 m -34 X s
 /xs 0 def (10) /Helvetica-Bold 40.9897 stwn  gsave  143 868
 t 0 r  xs neg 0 t 0 0 m /Helvetica-Bold findfont 40.9897 sf 0 0 m (10) show  gr 
 gsave  144 898
 t 0 r 0 0 m /Helvetica-Bold findfont 25.0493 sf 0 0 m (6) show  gr  185 921 m -17 X s 185 942 m -17 X s 185 957 m -17 X s 185 968 m -17 X s 185 978 m -17 X s 185 986 m -17 X s 185 993 m -17 X s 185 999 m -17 X s 0.95 0.95 0.95 c 868 55 43 1051 bf
 black 50 1051 m -4 Y 866 X 52 Y -5 X -48 Y f 43 1051 m 55 Y 868 X -55 Y -868 X cl s 1 1 1 c black
 gsave  747 1056
 t 0 r 0 0 m /Helvetica-Bold findfont 29.6037 sf 0 0 m (before) show  gr 
 gsave  699 1072
 t 0 r 0 0 m /Helvetica-Bold findfont 43.2669 sf 0 0 m (-Q) show  gr 
 gsave  633 1056
 t 0 r 0 0 m /Helvetica-Bold findfont 29.6037 sf 0 0 m (after) show  gr 
 gsave  112 1072
 t 0 r 0 0 m /Helvetica-Bold findfont 43.2669 sf 0 0 m (Difference distribution: Q) show  gr  gr 
showpage
 gr 
%%Trailer
%%Pages:  1
 gr  gr  gr 
%%EOF
