%!PS-Adobe-2.0 EPSF-2.0
%%BoundingBox:  0 0 567 378
%%Title: Comparison of Mass(1) of nu_tau pi- pi- in channel tau- => nu_tau pi0 pi+ pi- pi- 
%%Creator: ROOT Version 3.02/07
%%CreationDate: Fri Jun 14 16:10:53 2002
%%EndComments
%%BeginProlog
80 dict begin
/s {stroke} def /l {lineto} def /m {moveto} def /t {translate} def
/sw {stringwidth} def /r {rotate} def /rl {roll}  def /R {repeat} def
/d {rlineto} def /rm {rmoveto} def /gr {grestore} def /f {eofill} def
/c {setrgbcolor} def /lw {setlinewidth} def /sd {setdash} def
/cl {closepath} def /sf {scalefont setfont} def /black {0 setgray} def
/box {m dup 0 exch d exch 0 d 0 exch neg d cl} def
/NC{systemdict begin initclip end}def/C{NC box clip newpath}def
/bl {box s} def /bf {box f} def /Y { 0 exch d} def /X { 0 d} def 
/mp {newpath /y exch def /x exch def} def
/side {[w .77 mul w .23 mul] .385 w mul sd w 0 l currentpoint t -144 r} def
/mr {mp x y w2 0 360 arc} def /m24 {mr s} def /m20 {mr f} def
/mb {mp x y w2 add m w2 neg 0 d 0 w neg d w 0 d 0 w d cl} def
/mt {mp x y w2 add m w2 neg w neg d w 0 d cl} def
/m21 {mb f} def /m25 {mb s} def /m22 {mt f} def /m26{mt s} def
/m23 {mp x y w2 sub m w2 w d w neg 0 d cl f} def
/m27 {mp x y w2 add m w3 neg w2 neg d w3 w2 neg d w3 w2 d cl s} def
/m28 {mp x w2 sub y w2 sub w3 add m w3 0 d  0 w3 neg d w3 0 d 0 w3 d w3 0 d  0 w3 d w3 neg 0 d 0 w3 d w3 neg 0 d
 0 w3 neg d w3 neg 0 d cl s } def
/m29 {mp gsave x w2 sub y w2 add w3 sub m currentpoint t
 4 {side} repeat cl fill gr} def
/m30 {mp gsave x w2 sub y w2 add w3 sub m currentpoint t
 4 {side} repeat cl s gr} def
/m31 {mp x y w2 sub m 0 w d x w2 sub y m w 0 d x w2 sub y w2 add m w w neg d x w2 sub y w2
 sub m w w d s} def
/m2 {mp x y w2 sub m 0 w d x w2 sub y m w 0 d s} def
/m5 {mp x w2 sub y w2 sub m w w d x w2 sub y w2 add m w w neg d s} def
/reencdict 24 dict def /ReEncode {reencdict begin /nco&na exch def
/nfnam exch def /basefontname exch def /basefontdict basefontname findfont def
/newfont basefontdict maxlength dict def basefontdict {exch dup /FID ne
{dup /Encoding eq {exch dup length array copy newfont 3 1 roll put} {exch 
newfont 3 1 roll put} ifelse} {pop pop} ifelse } forall newfont
/FontName nfnam put nco&na aload pop nco&na length 2 idiv {newfont
/Encoding get 3 1 roll put} repeat nfnam newfont definefont pop end } def
/accvec [ 176 /agrave 181 /Agrave 190 /acircumflex 192 /Acircumflex
201 /adieresis 204 /Adieresis 209 /ccedilla 210 /Ccedilla 211 /eacute
212 /Eacute 213 /egrave 214 /Egrave 215 /ecircumflex 216 /Ecircumflex
217 /edieresis 218 /Edieresis 219 /icircumflex 220 /Icircumflex
221 /idieresis 222 /Idieresis 223 /ntilde 224 /Ntilde 226 /ocircumflex
228 /Ocircumflex 229 /odieresis 230 /Odieresis 231 /ucircumflex 236 /Ucircumflex
237 /udieresis 238 /Udieresis 239 /aring 242 /Aring 243 /ydieresis
244 /Ydieresis 246 /aacute 247 /Aacute 252 /ugrave 253 /Ugrave] def
/Times-Roman /Times-Roman accvec ReEncode
/Times-Italic /Times-Italic accvec ReEncode
/Times-Bold /Times-Bold accvec ReEncode
/Times-BoldItalic /Times-BoldItalic accvec ReEncode
/Helvetica /Helvetica accvec ReEncode
/Helvetica-Oblique /Helvetica-Oblique accvec ReEncode
/Helvetica-Bold /Helvetica-Bold accvec ReEncode
/Helvetica-BoldOblique /Helvetica-BoldOblique  accvec ReEncode
/Courier /Courier accvec ReEncode
/Courier-Oblique /Courier-Oblique accvec ReEncode
/Courier-Bold /Courier-Bold accvec ReEncode
/Courier-BoldOblique /Courier-BoldOblique accvec ReEncode
/oshow {gsave [] 0 sd true charpath stroke gr} def
/stwn { /fs exch def /fn exch def /text exch def fn findfont fs sf
 text sw pop xs add /xs exch def} def
/stwb { /fs exch def /fn exch def /nbas exch def /textf exch deftextf length /tlen exch def nbas tlen gt {/nbas tlendef} iffn findfont fs sf textf dup length nbas sub nbas getinterval sw
pop neg xs add /xs exch def} def
/accspe [ 65 /plusminus  66 /bar  67 /existential  68 /universal 
69 /exclam  70 /numbersign 71 /greater  72 /question  73 /integral 
74 /colon  75 /semicolon  76 /less  77 /bracketleft  78 /bracketright
79 /greaterequal 80 /braceleft 81 /braceright 82 /radical
83 /spade 84 /heart 85 /diamond 86 /club 87 /lessequal
88 /multiply 89 /percent 90 /infinity 48 /circlemultiply 49 /circleplus
50 /emptyset  51 /lozenge 52 /bullet 53 /arrowright 54 /arrowup
55 /arrowleft 56 /arrowdown 57 /arrowboth 48 /degree 44 /comma 43 /plus 45 /angle 42 /angleleft 47 /divide 61 /notequal 40 /equivalence 41 /second 97 /approxequal 98 /congruent 99 /perpendicular 100 /partialdiff 101 /florin 102 /intersection
 103 /union 104 /propersuperset 105 /reflexsuperset 106 /notsubset 107 /propersubset 108 /reflexsubset 109 /element 110 /notelement 111 /gradient 112 /logicaland 113 /logicalor 114 /arrowdblboth 115 /arrowdblleft 116 /arrowdblup 117 /arrowdblright
 118 /arrowdbldown 119 /ampersand 120 /omega1 121 /similar 122 /aleph ] def
/Symbol /Special accspe ReEncode
%%EndProlog
newpath  gsave  .25 .25 scale  gsave  0 0 t black [] 0 sd 3 lw 0.999 0.999 0.999 c 2268 1512 0 0 bf 1 1 1 c 0 0 m 2 2 d 1508 Y 2264 X 2 2 d -2268 X -1512 Y f 0.999 0.999 0.999 c 0 0 m 2 2 d 2264 X 1508 Y 2 2 d -1512 Y -2268 X f black [] 0 sd 3 lw
 0.999 0.999 0.999 c 1814 1210 227 151 bf 1 1 1 c 227 151 m 1 1 d 1208 Y 1812 X 1 1 d -1814 X -1210 Y f 0.999 0.999 0.999 c 227 151 m 1 1 d 1812 X 1208 Y 1 1 d -1210 Y -1814 X f [] 0 sd 3 lw black 227 151 m 1814 X s [] 0 sd 3 lw 2041 151 m 1210 Y s
 [] 0 sd 3 lw 2041 1361 m -1814 X s [] 0 sd 3 lw 227 1361 m -1210 Y s [] 0 sd 3 lw 1 1 1 c black [] 0 sd 3 lw 227 151 m 287 X 499 Y 15 X 653 Y 15 X -55 Y 15 X -9 Y 15 X 33 Y 16 X -214 Y 15 X -54 Y 15 X 166 Y 15 X -110 Y 15 X -54 Y 15 X -12 Y 15 X -7
 Y 15 X -34 Y 16 X 21 Y 15 X -12 Y 15 X -33 Y 15 X 48 Y 15 X -45 Y 15 X 18 Y 15 X -17 Y 15 X -19 Y 15 X -12 Y 16 X 23 Y 15 X -5 Y 15 X -15 Y 15 X 1 Y 15 X -9 Y 15 X -11 Y 15 X -2 Y 15 X -14 Y 16 X 2 Y 15 X -36 Y 15 X -15 Y 15 X -6 Y 15 X -34 Y 15 X
 -11 Y 15 X -26 Y 15 X -23 Y 16 X -19 Y 15 X -29 Y 15 X -26 Y 15 X -26 Y 15 X -8 Y 15 X -30 Y 15 X -9 Y 15 X -10 Y 15 X -2 Y 16 X -4 Y 15 X -13 Y 15 X -4 Y 15 X -5 Y 15 X -9 Y 15 X 4 Y 15 X 3 Y 15 X -18 Y 16 X 12 Y 15 X -2 Y 15 X -2 Y 15 X -9 Y 15 X
 -12 Y 15 X 14 Y 15 X -11 Y 15 X -13 Y 15 X 16 Y 16 X 1 Y 15 X -25 Y 15 X 13 Y 15 X 26 Y 15 X -64 Y 15 X -46 Y 15 X 834 Y 15 X -1097 Y 454 X s [] 0 sd 3 lw [] 0 sd 3 lw 227 151 m 1814 X s s [] 0 sd 3 lw [] 0 sd 3 lw 227 187 m -36 Y s s [] 0 sd 3 lw
 [] 0 sd 3 lw 272 169 m -18 Y s s [] 0 sd 3 lw [] 0 sd 3 lw 317 169 m -18 Y s s [] 0 sd 3 lw [] 0 sd 3 lw 363 169 m -18 Y s s [] 0 sd 3 lw [] 0 sd 3 lw 408 187 m -36 Y s s [] 0 sd 3 lw [] 0 sd 3 lw 454 169 m -18 Y s s [] 0 sd 3 lw [] 0 sd 3 lw 499
 169 m -18 Y s s [] 0 sd 3 lw [] 0 sd 3 lw 544 169 m -18 Y s s [] 0 sd 3 lw [] 0 sd 3 lw 590 187 m -36 Y s s [] 0 sd 3 lw [] 0 sd 3 lw 635 169 m -18 Y s s [] 0 sd 3 lw [] 0 sd 3 lw 680 169 m -18 Y s s [] 0 sd 3 lw [] 0 sd 3 lw 726 169 m -18 Y s s
 [] 0 sd 3 lw [] 0 sd 3 lw 771 187 m -36 Y s s [] 0 sd 3 lw [] 0 sd 3 lw 816 169 m -18 Y s s [] 0 sd 3 lw [] 0 sd 3 lw 862 169 m -18 Y s s [] 0 sd 3 lw [] 0 sd 3 lw 907 169 m -18 Y s s [] 0 sd 3 lw [] 0 sd 3 lw 952 187 m -36 Y s s [] 0 sd 3 lw
 [] 0 sd 3 lw 998 169 m -18 Y s s [] 0 sd 3 lw [] 0 sd 3 lw 1043 169 m -18 Y s s [] 0 sd 3 lw [] 0 sd 3 lw 1089 169 m -18 Y s s [] 0 sd 3 lw [] 0 sd 3 lw 1134 187 m -36 Y s s [] 0 sd 3 lw [] 0 sd 3 lw 1179 169 m -18 Y s s [] 0 sd 3 lw [] 0 sd 3 lw
 1225 169 m -18 Y s s [] 0 sd 3 lw [] 0 sd 3 lw 1270 169 m -18 Y s s [] 0 sd 3 lw [] 0 sd 3 lw 1315 187 m -36 Y s s [] 0 sd 3 lw [] 0 sd 3 lw 1361 169 m -18 Y s s [] 0 sd 3 lw [] 0 sd 3 lw 1406 169 m -18 Y s s [] 0 sd 3 lw [] 0 sd 3 lw 1451 169 m -18
 Y s s [] 0 sd 3 lw [] 0 sd 3 lw 1497 187 m -36 Y s s [] 0 sd 3 lw [] 0 sd 3 lw 1542 169 m -18 Y s s [] 0 sd 3 lw [] 0 sd 3 lw 1587 169 m -18 Y s s [] 0 sd 3 lw [] 0 sd 3 lw 1633 169 m -18 Y s s [] 0 sd 3 lw [] 0 sd 3 lw 1678 187 m -36 Y s s [] 0 sd
 3 lw [] 0 sd 3 lw 1723 169 m -18 Y s s [] 0 sd 3 lw [] 0 sd 3 lw 1769 169 m -18 Y s s [] 0 sd 3 lw [] 0 sd 3 lw 1814 169 m -18 Y s s [] 0 sd 3 lw [] 0 sd 3 lw 1860 187 m -36 Y s s [] 0 sd 3 lw [] 0 sd 3 lw 1905 169 m -18 Y s s [] 0 sd 3 lw [] 0 sd 3
 lw 1950 169 m -18 Y s s [] 0 sd 3 lw [] 0 sd 3 lw 1996 169 m -18 Y s s [] 0 sd 3 lw [] 0 sd 3 lw 2041 187 m -36 Y s s
 /xs 0 def (0) /Helvetica-Bold 56 stwn  gsave  227 83
 t 0 r xs 2 div neg 0 t 0 0 m /Helvetica-Bold findfont 56 sf 0 0 m (0) show  gr 
 /xs 0 def (0.2) /Helvetica-Bold 56 stwn  gsave  408 83
 t 0 r xs 2 div neg 0 t 0 0 m /Helvetica-Bold findfont 56 sf 0 0 m (0.2) show  gr 
 /xs 0 def (0.4) /Helvetica-Bold 56 stwn  gsave  590 83
 t 0 r xs 2 div neg 0 t 0 0 m /Helvetica-Bold findfont 56 sf 0 0 m (0.4) show  gr 
 /xs 0 def (0.6) /Helvetica-Bold 56 stwn  gsave  771 83
 t 0 r xs 2 div neg 0 t 0 0 m /Helvetica-Bold findfont 56 sf 0 0 m (0.6) show  gr 
 /xs 0 def (0.8) /Helvetica-Bold 56 stwn  gsave  952 83
 t 0 r xs 2 div neg 0 t 0 0 m /Helvetica-Bold findfont 56 sf 0 0 m (0.8) show  gr 
 /xs 0 def (1) /Helvetica-Bold 56 stwn  gsave  1134 83
 t 0 r xs 2 div neg 0 t 0 0 m /Helvetica-Bold findfont 56 sf 0 0 m (1) show  gr 
 /xs 0 def (1.2) /Helvetica-Bold 56 stwn  gsave  1315 83
 t 0 r xs 2 div neg 0 t 0 0 m /Helvetica-Bold findfont 56 sf 0 0 m (1.2) show  gr 
 /xs 0 def (1.4) /Helvetica-Bold 56 stwn  gsave  1497 83
 t 0 r xs 2 div neg 0 t 0 0 m /Helvetica-Bold findfont 56 sf 0 0 m (1.4) show  gr 
 /xs 0 def (1.6) /Helvetica-Bold 56 stwn  gsave  1678 83
 t 0 r xs 2 div neg 0 t 0 0 m /Helvetica-Bold findfont 56 sf 0 0 m (1.6) show  gr 
 /xs 0 def (1.8) /Helvetica-Bold 56 stwn  gsave  1860 83
 t 0 r xs 2 div neg 0 t 0 0 m /Helvetica-Bold findfont 56 sf 0 0 m (1.8) show  gr 
 /xs 0 def (2) /Helvetica-Bold 56 stwn  gsave  2041 83
 t 0 r xs 2 div neg 0 t 0 0 m /Helvetica-Bold findfont 56 sf 0 0 m (2) show  gr  [] 0 sd 3 lw [] 0 sd 3 lw 227 151 m 1210 Y s s [] 0 sd 3 lw [] 0 sd 3 lw 281 151 m -54 X s s [] 0 sd 3 lw [] 0 sd 3 lw 254 177 m -27 X s s [] 0 sd 3 lw [] 0 sd 3 lw 254
 203 m -27 X s s [] 0 sd 3 lw [] 0 sd 3 lw 254 229 m -27 X s s [] 0 sd 3 lw [] 0 sd 3 lw 281 255 m -54 X s s [] 0 sd 3 lw [] 0 sd 3 lw 254 281 m -27 X s s [] 0 sd 3 lw [] 0 sd 3 lw 254 307 m -27 X s s [] 0 sd 3 lw [] 0 sd 3 lw 254 333 m -27 X s s
 [] 0 sd 3 lw [] 0 sd 3 lw 281 359 m -54 X s s [] 0 sd 3 lw [] 0 sd 3 lw 254 385 m -27 X s s [] 0 sd 3 lw [] 0 sd 3 lw 254 411 m -27 X s s [] 0 sd 3 lw [] 0 sd 3 lw 254 437 m -27 X s s [] 0 sd 3 lw [] 0 sd 3 lw 281 463 m -54 X s s [] 0 sd 3 lw
 [] 0 sd 3 lw 254 489 m -27 X s s [] 0 sd 3 lw [] 0 sd 3 lw 254 515 m -27 X s s [] 0 sd 3 lw [] 0 sd 3 lw 254 541 m -27 X s s [] 0 sd 3 lw [] 0 sd 3 lw 281 567 m -54 X s s [] 0 sd 3 lw [] 0 sd 3 lw 254 593 m -27 X s s [] 0 sd 3 lw [] 0 sd 3 lw 254
 619 m -27 X s s [] 0 sd 3 lw [] 0 sd 3 lw 254 645 m -27 X s s [] 0 sd 3 lw [] 0 sd 3 lw 281 671 m -54 X s s [] 0 sd 3 lw [] 0 sd 3 lw 254 697 m -27 X s s [] 0 sd 3 lw [] 0 sd 3 lw 254 723 m -27 X s s [] 0 sd 3 lw [] 0 sd 3 lw 254 749 m -27 X s s
 [] 0 sd 3 lw [] 0 sd 3 lw 281 775 m -54 X s s [] 0 sd 3 lw [] 0 sd 3 lw 254 801 m -27 X s s [] 0 sd 3 lw [] 0 sd 3 lw 254 827 m -27 X s s [] 0 sd 3 lw [] 0 sd 3 lw 254 853 m -27 X s s [] 0 sd 3 lw [] 0 sd 3 lw 281 879 m -54 X s s [] 0 sd 3 lw
 [] 0 sd 3 lw 254 905 m -27 X s s [] 0 sd 3 lw [] 0 sd 3 lw 254 931 m -27 X s s [] 0 sd 3 lw [] 0 sd 3 lw 254 957 m -27 X s s [] 0 sd 3 lw [] 0 sd 3 lw 281 983 m -54 X s s [] 0 sd 3 lw [] 0 sd 3 lw 254 1009 m -27 X s s [] 0 sd 3 lw [] 0 sd 3 lw 254
 1035 m -27 X s s [] 0 sd 3 lw [] 0 sd 3 lw 254 1061 m -27 X s s [] 0 sd 3 lw [] 0 sd 3 lw 281 1087 m -54 X s s [] 0 sd 3 lw [] 0 sd 3 lw 254 1113 m -27 X s s [] 0 sd 3 lw [] 0 sd 3 lw 254 1139 m -27 X s s [] 0 sd 3 lw [] 0 sd 3 lw 254 1165 m -27 X s
 s [] 0 sd 3 lw [] 0 sd 3 lw 281 1191 m -54 X s s [] 0 sd 3 lw [] 0 sd 3 lw 254 1217 m -27 X s s [] 0 sd 3 lw [] 0 sd 3 lw 254 1243 m -27 X s s [] 0 sd 3 lw [] 0 sd 3 lw 254 1269 m -27 X s s [] 0 sd 3 lw [] 0 sd 3 lw 281 1295 m -54 X s s [] 0 sd 3 lw
 [] 0 sd 3 lw 281 1295 m -54 X s s [] 0 sd 3 lw [] 0 sd 3 lw 254 1321 m -27 X s s [] 0 sd 3 lw [] 0 sd 3 lw 254 1347 m -27 X s s
 /xs 0 def (0) /Helvetica-Bold 56 stwn  gsave  215 130
 t 0 r  xs neg 0 t 0 0 m /Helvetica-Bold findfont 56 sf 0 0 m (0) show  gr 
 /xs 0 def (0.2) /Helvetica-Bold 56 stwn  gsave  215 234
 t 0 r  xs neg 0 t 0 0 m /Helvetica-Bold findfont 56 sf 0 0 m (0.2) show  gr 
 /xs 0 def (0.4) /Helvetica-Bold 56 stwn  gsave  215 338
 t 0 r  xs neg 0 t 0 0 m /Helvetica-Bold findfont 56 sf 0 0 m (0.4) show  gr 
 /xs 0 def (0.6) /Helvetica-Bold 56 stwn  gsave  215 442
 t 0 r  xs neg 0 t 0 0 m /Helvetica-Bold findfont 56 sf 0 0 m (0.6) show  gr 
 /xs 0 def (0.8) /Helvetica-Bold 56 stwn  gsave  215 546
 t 0 r  xs neg 0 t 0 0 m /Helvetica-Bold findfont 56 sf 0 0 m (0.8) show  gr 
 /xs 0 def (1) /Helvetica-Bold 56 stwn  gsave  215 650
 t 0 r  xs neg 0 t 0 0 m /Helvetica-Bold findfont 56 sf 0 0 m (1) show  gr 
 /xs 0 def (1.2) /Helvetica-Bold 56 stwn  gsave  215 754
 t 0 r  xs neg 0 t 0 0 m /Helvetica-Bold findfont 56 sf 0 0 m (1.2) show  gr 
 /xs 0 def (1.4) /Helvetica-Bold 56 stwn  gsave  215 858
 t 0 r  xs neg 0 t 0 0 m /Helvetica-Bold findfont 56 sf 0 0 m (1.4) show  gr 
 /xs 0 def (1.6) /Helvetica-Bold 56 stwn  gsave  215 962
 t 0 r  xs neg 0 t 0 0 m /Helvetica-Bold findfont 56 sf 0 0 m (1.6) show  gr 
 /xs 0 def (1.8) /Helvetica-Bold 56 stwn  gsave  215 1066
 t 0 r  xs neg 0 t 0 0 m /Helvetica-Bold findfont 56 sf 0 0 m (1.8) show  gr 
 /xs 0 def (2) /Helvetica-Bold 56 stwn  gsave  215 1170
 t 0 r  xs neg 0 t 0 0 m /Helvetica-Bold findfont 56 sf 0 0 m (2) show  gr 
 /xs 0 def (2.2) /Helvetica-Bold 56 stwn  gsave  215 1274
 t 0 r  xs neg 0 t 0 0 m /Helvetica-Bold findfont 56 sf 0 0 m (2.2) show  gr  [] 0 sd 3 lw 0.999 0.999 0.999 c 1360 75 23 1429 bf black [] 0 sd 3 lw 34 1429 m -8 Y 1357 X 72 Y -8 X -64 Y f [] 0 sd 3 lw 23 1429 m 75 Y 1360 X -75 Y -1360 X cl s 1 1 1 c
 black
 gsave  34 1455
 t 0 r 0 0 m /Helvetica-Bold findfont 36 sf 0 0 m (Comparison of Mass\(1\) of nu_tau pi- pi- in channel tau- => nu_tau pi0 pi) show  currentpoint pop 0 t  /Helvetica-Bold findfont 36 sf 0 0 m (+ pi- pi- \040) show  gr  1 0 0 c [] 0 sd 3 lw 1 1 1 c
 black [] 0 sd 3 lw 1 0 0 c 227 151 m 287 X 1 Y 15 X 2 Y 15 X 3 Y 15 X 3 Y 15 X 6 Y 16 X 9 Y 15 X 6 Y 15 X 15 Y 15 X 18 Y 15 X 14 Y 15 X 18 Y 15 X 28 Y 15 X 28 Y 16 X 34 Y 15 X 23 Y 15 X 30 Y 15 X 51 Y 15 X 29 Y 15 X 45 Y 15 X 45 Y 15 X 43 Y 15 X 34
 Y 16 X 65 Y 15 X 38 Y 15 X 52 Y 15 X 62 Y 15 X 25 Y 15 X 64 Y 15 X 45 Y 15 X 29 Y 16 X 38 Y 15 X 21 Y 15 X 19 Y 15 X 26 Y 15 X 12 Y 15 X 5 Y 15 X -3 Y 15 X -35 Y 16 X -7 Y 15 X -41 Y 15 X -33 Y 15 X -49 Y 15 X -13 Y 15 X -34 Y 15 X -3 Y 15 X -10 Y
 15 X -6 Y 16 X 4 Y 15 X -11 Y 15 X -7 Y 15 X -3 Y 15 X -29 Y 15 X -17 Y 15 X -11 Y 15 X -49 Y 16 X -37 Y 15 X -56 Y 15 X -46 Y 15 X -60 Y 15 X -68 Y 15 X -54 Y 15 X -62 Y 15 X -59 Y 15 X -44 Y 16 X -45 Y 15 X -38 Y 15 X -24 Y 15 X -20 Y 15 X -11 Y
 15 X -4 Y 15 X -1 Y 469 X s 0 1 0 c [] 0 sd 3 lw 1 1 1 c black [] 0 sd 3 lw 0 1 0 c 227 151 m 287 X 1 Y 15 X 1 Y 15 X 1 Y 15 X 2 Y 15 X 3 Y 16 X 7 Y 15 X 5 Y 15 X 4 Y 15 X 14 Y 15 X 11 Y 15 X 13 Y 15 X 19 Y 15 X 22 Y 16 X 21 Y 15 X 17 Y 15 X 27 Y 15
 X 24 Y 15 X 31 Y 15 X 26 Y 15 X 37 Y 15 X 38 Y 15 X 31 Y 16 X 35 Y 15 X 30 Y 15 X 45 Y 15 X 45 Y 15 X 25 Y 15 X 56 Y 15 X 35 Y 15 X 35 Y 16 X 27 Y 15 X 52 Y 15 X 33 Y 15 X 28 Y 15 X 53 Y 15 X 20 Y 15 X 35 Y 15 X 4 Y 16 X 23 Y 15 X 10 Y 15 X 13 Y 15
 X -3 Y 15 X 1 Y 15 X 23 Y 15 X 16 Y 15 X 10 Y 15 X -2 Y 16 X 16 Y 15 X 18 Y 15 X -1 Y 15 X 10 Y 15 X -18 Y 15 X -35 Y 15 X -23 Y 15 X -26 Y 16 X -84 Y 15 X -77 Y 15 X -64 Y 15 X -73 Y 15 X -82 Y 15 X -103 Y 15 X -82 Y 15 X -80 Y 15 X -81 Y 16 X -69
 Y 15 X -52 Y 15 X -41 Y 15 X -34 Y 15 X -15 Y 15 X -6 Y 15 X -2 Y 469 X s 1 0 0 c [] 0 sd 3 lw [] 0 sd 3 lw 2041 151 m 1152 Y s s [] 0 sd 3 lw [] 0 sd 3 lw 1989 151 m 52 X s s [] 0 sd 3 lw [] 0 sd 3 lw 2015 190 m 26 X s s [] 0 sd 3 lw [] 0 sd 3 lw
 2015 229 m 26 X s s [] 0 sd 3 lw [] 0 sd 3 lw 2015 268 m 26 X s s [] 0 sd 3 lw [] 0 sd 3 lw 1989 307 m 52 X s s [] 0 sd 3 lw [] 0 sd 3 lw 2015 346 m 26 X s s [] 0 sd 3 lw [] 0 sd 3 lw 2015 385 m 26 X s s [] 0 sd 3 lw [] 0 sd 3 lw 2015 424 m 26 X s s
 [] 0 sd 3 lw [] 0 sd 3 lw 1989 463 m 52 X s s [] 0 sd 3 lw [] 0 sd 3 lw 2015 502 m 26 X s s [] 0 sd 3 lw [] 0 sd 3 lw 2015 541 m 26 X s s [] 0 sd 3 lw [] 0 sd 3 lw 2015 580 m 26 X s s [] 0 sd 3 lw [] 0 sd 3 lw 1989 619 m 52 X s s [] 0 sd 3 lw
 [] 0 sd 3 lw 2015 658 m 26 X s s [] 0 sd 3 lw [] 0 sd 3 lw 2015 697 m 26 X s s [] 0 sd 3 lw [] 0 sd 3 lw 2015 735 m 26 X s s [] 0 sd 3 lw [] 0 sd 3 lw 1989 774 m 52 X s s [] 0 sd 3 lw [] 0 sd 3 lw 2015 813 m 26 X s s [] 0 sd 3 lw [] 0 sd 3 lw 2015
 852 m 26 X s s [] 0 sd 3 lw [] 0 sd 3 lw 2015 891 m 26 X s s [] 0 sd 3 lw [] 0 sd 3 lw 1989 930 m 52 X s s [] 0 sd 3 lw [] 0 sd 3 lw 2015 969 m 26 X s s [] 0 sd 3 lw [] 0 sd 3 lw 2015 1008 m 26 X s s [] 0 sd 3 lw [] 0 sd 3 lw 2015 1047 m 26 X s s
 [] 0 sd 3 lw [] 0 sd 3 lw 1989 1086 m 52 X s s [] 0 sd 3 lw [] 0 sd 3 lw 2015 1125 m 26 X s s [] 0 sd 3 lw [] 0 sd 3 lw 2015 1164 m 26 X s s [] 0 sd 3 lw [] 0 sd 3 lw 2015 1203 m 26 X s s [] 0 sd 3 lw [] 0 sd 3 lw 1989 1242 m 52 X s s [] 0 sd 3 lw
 [] 0 sd 3 lw 1989 1242 m 52 X s s [] 0 sd 3 lw [] 0 sd 3 lw 2015 1281 m 26 X s s black
 gsave  2052 130
 t 0 r 0 0 m /Helvetica-Bold findfont 56 sf 0 0 m (0) show  gr 
 gsave  2052 286
 t 0 r 0 0 m /Helvetica-Bold findfont 56 sf 0 0 m (2000) show  gr 
 gsave  2052 442
 t 0 r 0 0 m /Helvetica-Bold findfont 56 sf 0 0 m (4000) show  gr 
 gsave  2052 597
 t 0 r 0 0 m /Helvetica-Bold findfont 56 sf 0 0 m (6000) show  gr 
 gsave  2052 753
 t 0 r 0 0 m /Helvetica-Bold findfont 56 sf 0 0 m (8000) show  gr 
 gsave  2052 909
 t 0 r 0 0 m /Helvetica-Bold findfont 56 sf 0 0 m (10000) show  gr 
 gsave  2052 1065
 t 0 r 0 0 m /Helvetica-Bold findfont 56 sf 0 0 m (12000) show  gr 
 gsave  2052 1221
 t 0 r 0 0 m /Helvetica-Bold findfont 56 sf 0 0 m (14000) show  gr  [] 0 sd 3 lw 1 1 0 c 476 167 1769 1330 bf 1 1 0.2 c 1769 1330 m 2 2 d 163 Y 472 X 2 2 d -476 X -167 Y f 0.7 0.7 0 c 1769 1330 m 2 2 d 472 X 163 Y 2 2 d -167 Y -476 X f black
 gsave  1818 1429
 t 0 r 0 0 m /Helvetica-Bold findfont 52 sf 0 0 m (Shape diff parm:) show  gr 
 gsave  1818 1338
 t 0 r 0 0 m /Helvetica-Bold findfont 84 sf 0 0 m (   0.22) show  gr  [] 0 sd 3 lw 0.999 0.999 0.999 c 1360 75 23 1429 bf black [] 0 sd 3 lw 34 1429 m -8 Y 1357 X 72 Y -8 X -64 Y f [] 0 sd 3 lw 23 1429 m 75 Y 1360 X -75 Y -1360 X cl s 1 1 1 c black
 gsave  34 1455
 t 0 r 0 0 m /Helvetica-Bold findfont 36 sf 0 0 m (Comparison of Mass\(1\) of nu_tau pi- pi- in channel tau- => nu_tau pi0 pi) show  currentpoint pop 0 t  /Helvetica-Bold findfont 36 sf 0 0 m (+ pi- pi- \040) show  gr 
 gr  gr 
showpage
end
%%EOF
