\relax 
\citation{MC2000}
\citation{Jadach:1993hs,Jezabek:1991qp,Jadach:1990mz}
\@writefile{toc}{\contentsline {section}{\numberline {1}Introduction}{4}}
\citation{root-install-www}
\citation{Golonka:2002iu}
\@writefile{toc}{\contentsline {section}{\numberline {2}Installation and generation step}{5}}
\newlabel{sec:installation}{{2}{5}}
\@writefile{toc}{\contentsline {section}{\numberline {3}Analysis}{6}}
\newlabel{sec:analysis}{{3}{6}}
\@writefile{toc}{\contentsline {subsection}{\numberline {3.1}Description of a single plot}{7}}
\@writefile{toc}{\contentsline {section}{\numberline {4}{\tt  Shape Difference Parameter} calculation algorithms}{7}}
\newlabel{sec:SDP-algorithms}{{4}{7}}
\newlabel{subfig:firstpage}{{1(a)}{8}}
\newlabel{sub@subfig:firstpage}{{(a)}{8}}
\newlabel{subfig:channelstable}{{1(b)}{8}}
\newlabel{sub@subfig:channelstable}{{(b)}{8}}
\@writefile{lof}{\contentsline {figure}{\numberline {1}{\ignorespaces  Example of booklet's informational pages produced at analysis step. At the bottom of the table 1\hbox {}(b), the $T_1$, $T_2$ coefficients quantifying the difference in all decay channels combined are printed (see chapter 6.1\hbox {} for details). }}{8}}
\@writefile{lof}{\contentsline {subfigure}{\numberline{(a)}{\ignorespaces {The first page of analysis booklet.}}}{8}}
\@writefile{lof}{\contentsline {subfigure}{\numberline{(b)}{\ignorespaces {The table of found decay channels.}}}{8}}
\newlabel{fig-booklet1}{{1}{8}}
\newlabel{subfig:singlepage}{{2(a)}{9}}
\newlabel{sub@subfig:singlepage}{{(a)}{9}}
\newlabel{subfig:singleplot}{{2(b)}{9}}
\newlabel{sub@subfig:singleplot}{{(b)}{9}}
\@writefile{lof}{\contentsline {figure}{\numberline {2}{\ignorespaces  Examples of plots produced at analysis step.}}{9}}
\@writefile{lof}{\contentsline {subfigure}{\numberline{(a)}{\ignorespaces {The example of a page with histograms.}}}{9}}
\@writefile{lof}{\contentsline {subfigure}{\numberline{(b)}{\ignorespaces {The example of a histogram.}}}{9}}
\newlabel{fig-Tester}{{2}{9}}
\@writefile{toc}{\contentsline {subsection}{\numberline {4.1}How to set a particular test}{10}}
\@writefile{toc}{\contentsline {subsection}{\numberline {4.2}{\tt  MCTest01} $-$ exclusive surface }{11}}
\newlabel{sec:MCTest01}{{4.2}{11}}
\@writefile{toc}{\contentsline {subsubsection}{\numberline {4.2.1}Detailed definition}{11}}
\newlabel{modul}{{1}{11}}
\newlabel{moduls}{{2}{11}}
\newlabel{max}{{3}{11}}
\newlabel{SDPa}{{4}{11}}
\@writefile{toc}{\contentsline {subsubsection}{\numberline {4.2.2}Results and interpretation of {\tt  MCTest01} }{11}}
\newlabel{sec:Results1}{{4.2.2}{11}}
\@writefile{lof}{\contentsline {figure}{\numberline {3}{\ignorespaces \it  Comparison of two histograms with {\tt  SDP} $=0.177\nobreakspace  {}$ (in the limit of infinite samples {\tt  SDP} would equal $0.20$). }}{12}}
\newlabel{rys1}{{3}{12}}
\@writefile{lof}{\contentsline {figure}{\numberline {4}{\ignorespaces \it  Comparison as in the previous figure, but samples $1000$ times smaller. {\tt  SDP}\nobreakspace  {}$=0.00139\nobreakspace  {}$ now.}}{12}}
\newlabel{rys2}{{4}{12}}
\@writefile{lof}{\contentsline {figure}{\numberline {5}{\ignorespaces \it  Two completely disjoint histograms. {\tt  SDP} $=1.97$. }}{13}}
\newlabel{rys3}{{5}{13}}
\@writefile{lof}{\contentsline {figure}{\numberline {6}{\ignorespaces \it  Two completely disjoint histograms. {\tt  SDP} $=1.46$, samples $1000$ times smaller than in the previous figure.}}{13}}
\newlabel{rys4}{{6}{13}}
\@writefile{toc}{\contentsline {subsection}{\numberline {4.3}{\tt  MCTest02} $-$ non-uniformity of the histograms ratio}{14}}
\newlabel{sec:MCTest02}{{4.3}{14}}
\@writefile{toc}{\contentsline {subsubsection}{\numberline {4.3.1}Detailed definition}{14}}
\newlabel{maxa}{{5}{14}}
\newlabel{maxb}{{6}{14}}
\newlabel{maxc}{{7}{14}}
\newlabel{SDPb}{{8}{14}}
\@writefile{lof}{\contentsline {figure}{\numberline {7}{\ignorespaces \it  For these two histograms (red and green) {\tt  MCTest01} gives {\tt  SDP} $=0.4881$, and {\tt  MCTest02} gives {\tt  SDP} $=1.0014$.}}{15}}
\newlabel{rys.1i}{{7}{15}}
\@writefile{lof}{\contentsline {figure}{\numberline {8}{\ignorespaces {\it  For these two histograms {\tt  MCTest01} gives {\tt  SDP} $=0.0235$, and {\tt  MCTest02} gives {\tt  SDP} $=0.0179$. Statistic is 200 times smaller than in} Fig.7\hbox {}.}}{15}}
\newlabel{rys.2i}{{8}{15}}
\@writefile{toc}{\contentsline {subsubsection}{\numberline {4.3.2}Results and interpretation of {\tt  MCTest02}}{15}}
\newlabel{sec:Results2}{{4.3.2}{15}}
\citation{root1,root2}
\@writefile{toc}{\contentsline {subsection}{\numberline {4.4}{\tt  MCTest03}$-$ Kolmogorov compatibility test}{16}}
\newlabel{sec:MCTest03}{{4.4}{16}}
\@writefile{toc}{\contentsline {section}{\numberline {5}Package organization}{16}}
\newlabel{sec:package-organization}{{5}{16}}
\@writefile{toc}{\contentsline {subsection}{\numberline {5.1}Directory tree}{16}}
\newlabel{dir-struct}{{5.1}{16}}
\citation{HEPEventlib}
\citation{photosplus}
\citation{Barberio:1990ms,Barberio:1994qi}
\@writefile{toc}{\contentsline {subsection}{\numberline {5.2}Libraries}{17}}
\@writefile{toc}{\contentsline {subsection}{\numberline {5.3}Format and syntax of the {\tt  SETUP.C} file}{17}}
\newlabel{SETUP.C}{{5.3}{17}}
\@writefile{lot}{\contentsline {table}{\numberline {1}{\ignorespaces  The most important settings of {\tt  MC-TESTER}. }}{18}}
\newlabel{table:settings}{{1}{18}}
\@writefile{toc}{\contentsline {subsection}{\numberline {5.4}User-defined {\tt  Shape Difference Parameter} algorithms}{19}}
\newlabel{sec:user-defined-sdp}{{5.4}{19}}
\@writefile{toc}{\contentsline {subsection}{\numberline {5.5}How to make {\tt  MC-TESTER} run with other generators}{19}}
\newlabel{other-generators}{{5.5}{19}}
\@writefile{toc}{\contentsline {subsubsection}{\numberline {5.5.1}The case of {\tt  F77} }{19}}
\newlabel{other-gen:F77}{{5.5.1}{19}}
\citation{HEPEventlib}
\@writefile{toc}{\contentsline {subsubsection}{\numberline {5.5.2}The case of {\tt  C++} }{20}}
\citation{PDG:1998,Pythia}
\@writefile{toc}{\contentsline {section}{\numberline {6}Outlook}{21}}
\newlabel{sec:outlook}{{6}{21}}
\citation{LC-Workshop}
\@writefile{toc}{\contentsline {subsection}{\numberline {6.1}Recent updates and extensions}{22}}
\newlabel{subsec:recent_updates}{{6.1}{22}}
\@input{appendix.aux}
\bibcite{MC2000}{1}
\bibcite{Jadach:1993hs}{2}
\bibcite{Jezabek:1991qp}{3}
\bibcite{Jadach:1990mz}{4}
\bibcite{root-install-www}{5}
\bibcite{Golonka:2002iu}{6}
\bibcite{root1}{7}
\bibcite{root2}{8}
\bibcite{HEPEventlib}{9}
\bibcite{photosplus}{10}
\bibcite{Barberio:1990ms}{11}
\bibcite{Barberio:1994qi}{12}
\bibcite{PDG:1998}{13}
\bibcite{Pythia}{14}
\bibcite{LC-Workshop}{15}
